{
  "classifierPath" : "meta::pure::runtime::PackageableConnection",
  "content" : {
    "_type" : "connection",
    "connectionValue" : {
      "_type" : "RelationalDatabaseConnection",
      "authenticationStrategy" : {
        "_type" : "h2Default"
      },
      "datasourceSpecification" : {
        "_type" : "h2Local",
        "testDataSetupSqls" : [ "Drop schema if exists currencySchema cascade;\r\nCreate schema currencySchema;\r\nCreate Table currencySchema.Country (ISOCode CHAR(2) , identifier int PRIMARY KEY);\r\nCreate Table currencySchema.IssuingEntity (LEI VARCHAR(20) , identifier int PRIMARY KEY);\r\nCreate Table currencySchema.Currency (finosId VARCHAR(36) PRIMARY KEY,isoCode CHAR(3),numericCode int,description VARCHAR(250),issuingAuthorityId int,roundingPrecision int,roundingDirection CHAR(1),status CHAR(1),type CHAR(3));\r\nCreate Table currencySchema.IssuingAuthority (issuingAuthorityType CHAR(1), name VARCHAR(250), identifier int PRIMARY KEY);\r\ninsert into currencySchema.Currency(finosId,isoCode,numericCode,description,issuingAuthorityId,roundingPrecision,roundingDirection,status,type) values ('a04a7410-a76f-11eb-bcbc-0242ac130002','AFN',971,'Afghani',3,2,'D','A','Ccy');\r\ninsert into currencySchema.Currency(finosId,isoCode,numericCode,description,issuingAuthorityId,roundingPrecision,roundingDirection,status,type) values ('a04a776c-a76f-11eb-bcbc-0242ac130002','ALL',008,'Lek',4,2,'D','A','Ccy');\r\ninsert into currencySchema.Currency(finosId,isoCode,numericCode,description,issuingAuthorityId,roundingPrecision,roundingDirection,status,type) values ('a04a7bb8-a76f-11eb-bcbc-0242ac130002','DZD',012,'Algerian Dinar',44,2,'D','A','Ccy');\r\ninsert into currencySchema.Currency(finosId,isoCode,numericCode,description,issuingAuthorityId,roundingPrecision,roundingDirection,status,type) values ('a04a7e38-a76f-11eb-bcbc-0242ac130002','AOA',973,'Kwanza',6,2,'D','A','Ccy');\r\ninsert into currencySchema.Currency(finosId,isoCode,numericCode,description,issuingAuthorityId,roundingPrecision,roundingDirection,status,type) values ('a04a7ef6-a76f-11eb-bcbc-0242ac130002','XCD',951,'East Caribbean Dollar',188,2,'D','A','Ccy');\r\ninsert into currencySchema.Currency(finosId,isoCode,numericCode,description,issuingAuthorityId,roundingPrecision,roundingDirection,status,type) values ('a04a805e-a76f-11eb-bcbc-0242ac130002','ARS',032,'Argentine Peso',7,2,'D','A','Ccy');\r\ninsert into currencySchema.Currency(finosId,isoCode,numericCode,description,issuingAuthorityId,roundingPrecision,roundingDirection,status,type) values ('a04a82c0-a76f-11eb-bcbc-0242ac130002','AMD',051,'Armenian Dram',5,2,'D','A','Ccy');\r\ninsert into currencySchema.Currency(finosId,isoCode,numericCode,description,issuingAuthorityId,roundingPrecision,roundingDirection,status,type) values ('a04a8388-a76f-11eb-bcbc-0242ac130002','AWG',533,'Aruban Florin',10,2,'D','A','Ccy');\r\ninsert into currencySchema.Currency(finosId,isoCode,numericCode,description,issuingAuthorityId,roundingPrecision,roundingDirection,status,type) values ('a04a8446-a76f-11eb-bcbc-0242ac130002','AUD',036,'Australian Dollar',9,2,'D','A','Ccy');\r\ninsert into currencySchema.Currency(finosId,isoCode,numericCode,description,issuingAuthorityId,roundingPrecision,roundingDirection,status,type) values ('a04a85b8-a76f-11eb-bcbc-0242ac130002','AZN',944,'Azerbaijan Manat',12,2,'D','A','Ccy');\r\ninsert into currencySchema.Currency(finosId,isoCode,numericCode,description,issuingAuthorityId,roundingPrecision,roundingDirection,status,type) values ('a04a866c-a76f-11eb-bcbc-0242ac130002','BSD',044,'Bahamian Dollar',24,2,'D','A','Ccy');\r\ninsert into currencySchema.Currency(finosId,isoCode,numericCode,description,issuingAuthorityId,roundingPrecision,roundingDirection,status,type) values ('a04a8978-a76f-11eb-bcbc-0242ac130002','BHD',048,'Bahraini Dinar',18,3,'D','A','Ccy');\r\ninsert into currencySchema.Currency(finosId,isoCode,numericCode,description,issuingAuthorityId,roundingPrecision,roundingDirection,status,type) values ('a04a8a40-a76f-11eb-bcbc-0242ac130002','BDT',050,'Taka',15,2,'D','A','Ccy');\r\ninsert into currencySchema.Currency(finosId,isoCode,numericCode,description,issuingAuthorityId,roundingPrecision,roundingDirection,status,type) values ('a04a8af4-a76f-11eb-bcbc-0242ac130002','BBD',052,'Barbados Dollar',14,2,'D','A','Ccy');\r\ninsert into currencySchema.Currency(finosId,isoCode,numericCode,description,issuingAuthorityId,roundingPrecision,roundingDirection,status,type) values ('a04a8bb2-a76f-11eb-bcbc-0242ac130002','BYN',933,'Belarusian Ruble',27,2,'D','A','Ccy');\r\ninsert into currencySchema.Currency(finosId,isoCode,numericCode,description,issuingAuthorityId,roundingPrecision,roundingDirection,status,type) values ('a04a8d24-a76f-11eb-bcbc-0242ac130002','BZD',084,'Belize Dollar',28,2,'D','A','Ccy');\r\ninsert into currencySchema.Currency(finosId,isoCode,numericCode,description,issuingAuthorityId,roundingPrecision,roundingDirection,status,type) values ('a04a8fe0-a76f-11eb-bcbc-0242ac130002','XOF',952,'CFA Franc BCEAO',189,0,'D','A','Ccy');\r\ninsert into currencySchema.Currency(finosId,isoCode,numericCode,description,issuingAuthorityId,roundingPrecision,roundingDirection,status,type) values ('a04a90a8-a76f-11eb-bcbc-0242ac130002','BMD',060,'Bermudian Dollar',20,2,'D','A','Ccy');\r\ninsert into currencySchema.Currency(finosId,isoCode,numericCode,description,issuingAuthorityId,roundingPrecision,roundingDirection,status,type) values ('a04a921a-a76f-11eb-bcbc-0242ac130002','BTN',064,'Ngultrum',25,2,'D','A','Ccy');\r\ninsert into currencySchema.Currency(finosId,isoCode,numericCode,description,issuingAuthorityId,roundingPrecision,roundingDirection,status,type) values ('a04a92ce-a76f-11eb-bcbc-0242ac130002','BOB',068,'Boliviano',22,2,'D','A','Ccy');\r\ninsert into currencySchema.Currency(finosId,isoCode,numericCode,description,issuingAuthorityId,roundingPrecision,roundingDirection,status,type) values ('a04a9440-a76f-11eb-bcbc-0242ac130002','BAM',977,'Convertible Mark',13,2,'D','A','Ccy');\r\ninsert into currencySchema.Currency(finosId,isoCode,numericCode,description,issuingAuthorityId,roundingPrecision,roundingDirection,status,type) values ('a04a9ae4-a76f-11eb-bcbc-0242ac130002','BWP',072,'Pula',26,2,'D','A','Ccy');\r\ninsert into currencySchema.Currency(finosId,isoCode,numericCode,description,issuingAuthorityId,roundingPrecision,roundingDirection,status,type) values ('a04a9c92-a76f-11eb-bcbc-0242ac130002','BRL',986,'Brazilian Real',23,2,'D','A','Ccy');\r\ninsert into currencySchema.Currency(finosId,isoCode,numericCode,description,issuingAuthorityId,roundingPrecision,roundingDirection,status,type) values ('a04a9e04-a76f-11eb-bcbc-0242ac130002','BND',096,'Brunei Dollar',21,2,'D','A','Ccy');\r\ninsert into currencySchema.Currency(finosId,isoCode,numericCode,description,issuingAuthorityId,roundingPrecision,roundingDirection,status,type) values ('a04a9eb8-a76f-11eb-bcbc-0242ac130002','BGN',975,'Bulgarian Lev',17,2,'D','A','Ccy');\r\ninsert into currencySchema.Currency(finosId,isoCode,numericCode,description,issuingAuthorityId,roundingPrecision,roundingDirection,status,type) values ('a04aa188-a76f-11eb-bcbc-0242ac130002','BIF',108,'Burundi Franc',19,0,'D','A','Ccy');\r\ninsert into currencySchema.Currency(finosId,isoCode,numericCode,description,issuingAuthorityId,roundingPrecision,roundingDirection,status,type) values ('a04aa250-a76f-11eb-bcbc-0242ac130002','CVE',132,'Cabo Verde Escudo',37,2,'D','A','Ccy');\r\ninsert into currencySchema.Currency(finosId,isoCode,numericCode,description,issuingAuthorityId,roundingPrecision,roundingDirection,status,type) values ('a04aa30e-a76f-11eb-bcbc-0242ac130002','KHR',116,'Riel',86,2,'D','A','Ccy');\r\ninsert into currencySchema.Currency(finosId,isoCode,numericCode,description,issuingAuthorityId,roundingPrecision,roundingDirection,status,type) values ('a04aa3cc-a76f-11eb-bcbc-0242ac130002','XAF',950,'CFA Franc BEAC',190,0,'D','A','Ccy');\r\ninsert into currencySchema.Currency(finosId,isoCode,numericCode,description,issuingAuthorityId,roundingPrecision,roundingDirection,status,type) values ('a04aa48a-a76f-11eb-bcbc-0242ac130002','CAD',124,'Canadian Dollar',29,2,'D','A','Ccy');\r\ninsert into currencySchema.Currency(finosId,isoCode,numericCode,description,issuingAuthorityId,roundingPrecision,roundingDirection,status,type) values ('a04aa53e-a76f-11eb-bcbc-0242ac130002','KYD',136,'Cayman Islands Dollar',91,2,'D','A','Ccy');\r\ninsert into currencySchema.Currency(finosId,isoCode,numericCode,description,issuingAuthorityId,roundingPrecision,roundingDirection,status,type) values ('a04aa926-a76f-11eb-bcbc-0242ac130002','CLP',152,'Chilean Peso',32,0,'D','A','Ccy');\r\ninsert into currencySchema.Currency(finosId,isoCode,numericCode,description,issuingAuthorityId,roundingPrecision,roundingDirection,status,type) values ('a04aa9da-a76f-11eb-bcbc-0242ac130002','CNY',156,'Yuan Renminbi',33,2,'D','A','Ccy');\r\ninsert into currencySchema.Currency(finosId,isoCode,numericCode,description,issuingAuthorityId,roundingPrecision,roundingDirection,status,type) values ('a04aac00-a76f-11eb-bcbc-0242ac130002','COP',170,'Colombian Peso',34,2,'D','A','Ccy');\r\ninsert into currencySchema.Currency(finosId,isoCode,numericCode,description,issuingAuthorityId,roundingPrecision,roundingDirection,status,type) values ('a04aacbe-a76f-11eb-bcbc-0242ac130002','KMF',174,'Comorian Franc ',87,0,'D','A','Ccy');\r\ninsert into currencySchema.Currency(finosId,isoCode,numericCode,description,issuingAuthorityId,roundingPrecision,roundingDirection,status,type) values ('a04aad7c-a76f-11eb-bcbc-0242ac130002','CDF',976,'Congolese Franc',30,2,'D','A','Ccy');\r\ninsert into currencySchema.Currency(finosId,isoCode,numericCode,description,issuingAuthorityId,roundingPrecision,roundingDirection,status,type) values ('a04ab18c-a76f-11eb-bcbc-0242ac130002','CRC',188,'Costa Rican Colon',35,2,'D','A','Ccy');\r\ninsert into currencySchema.Currency(finosId,isoCode,numericCode,description,issuingAuthorityId,roundingPrecision,roundingDirection,status,type) values ('a04ab2fe-a76f-11eb-bcbc-0242ac130002','HRK',191,'Kuna',70,2,'D','A','Ccy');\r\ninsert into currencySchema.Currency(finosId,isoCode,numericCode,description,issuingAuthorityId,roundingPrecision,roundingDirection,status,type) values ('a04ab3b2-a76f-11eb-bcbc-0242ac130002','CUP',192,'Cuban Peso',36,2,'D','A','Ccy');\r\ninsert into currencySchema.Currency(finosId,isoCode,numericCode,description,issuingAuthorityId,roundingPrecision,roundingDirection,status,type) values ('a04ab470-a76f-11eb-bcbc-0242ac130002','CUC',931,'Peso Convertible',36,2,'D','A','Ccy');\r\ninsert into currencySchema.Currency(finosId,isoCode,numericCode,description,issuingAuthorityId,roundingPrecision,roundingDirection,status,type) values ('a04ab786-a76f-11eb-bcbc-0242ac130002','ANG',532,'Netherlands Antillean Guilder',193,2,'D','A','Ccy');\r\ninsert into currencySchema.Currency(finosId,isoCode,numericCode,description,issuingAuthorityId,roundingPrecision,roundingDirection,status,type) values ('a04ab902-a76f-11eb-bcbc-0242ac130002','CZK',203,'Czech Koruna',39,2,'D','A','Ccy');\r\ninsert into currencySchema.Currency(finosId,isoCode,numericCode,description,issuingAuthorityId,roundingPrecision,roundingDirection,status,type) values ('a04ab9b6-a76f-11eb-bcbc-0242ac130002','DKK',208,'Danish Krone',42,2,'D','A','Ccy');\r\ninsert into currencySchema.Currency(finosId,isoCode,numericCode,description,issuingAuthorityId,roundingPrecision,roundingDirection,status,type) values ('a04aba6a-a76f-11eb-bcbc-0242ac130002','DJF',262,'Djibouti Franc',41,0,'D','A','Ccy');\r\ninsert into currencySchema.Currency(finosId,isoCode,numericCode,description,issuingAuthorityId,roundingPrecision,roundingDirection,status,type) values ('a04abd80-a76f-11eb-bcbc-0242ac130002','DOP',214,'Dominican Peso',43,2,'D','A','Ccy');\r\ninsert into currencySchema.Currency(finosId,isoCode,numericCode,description,issuingAuthorityId,roundingPrecision,roundingDirection,status,type) values ('a04abefc-a76f-11eb-bcbc-0242ac130002','EGP',818,'Egyptian Pound',47,2,'D','A','Ccy');\r\ninsert into currencySchema.Currency(finosId,isoCode,numericCode,description,issuingAuthorityId,roundingPrecision,roundingDirection,status,type) values ('a04abfb0-a76f-11eb-bcbc-0242ac130002','SVC',222,'El Salvador Colon',159,2,'D','A','Ccy');\r\ninsert into currencySchema.Currency(finosId,isoCode,numericCode,description,issuingAuthorityId,roundingPrecision,roundingDirection,status,type) values ('a04ac1e0-a76f-11eb-bcbc-0242ac130002','ERN',232,'Nakfa',48,2,'D','A','Ccy');\r\ninsert into currencySchema.Currency(finosId,isoCode,numericCode,description,issuingAuthorityId,roundingPrecision,roundingDirection,status,type) values ('a04ac514-a76f-11eb-bcbc-0242ac130002','SZL',748,'Lilangeni',161,2,'D','A','Ccy');\r\ninsert into currencySchema.Currency(finosId,isoCode,numericCode,description,issuingAuthorityId,roundingPrecision,roundingDirection,status,type) values ('a04ac5c8-a76f-11eb-bcbc-0242ac130002','ETB',230,'Ethiopian Birr',50,2,'D','A','Ccy');\r\ninsert into currencySchema.Currency(finosId,isoCode,numericCode,description,issuingAuthorityId,roundingPrecision,roundingDirection,status,type) values ('a04ac67c-a76f-11eb-bcbc-0242ac130002','EUR',978,'Euro',191,2,'D','A','Ccy');\r\ninsert into currencySchema.Currency(finosId,isoCode,numericCode,description,issuingAuthorityId,roundingPrecision,roundingDirection,status,type) values ('a04ac73a-a76f-11eb-bcbc-0242ac130002','FKP',238,'Falkland Islands Pound',53,2,'D','A','Ccy');\r\ninsert into currencySchema.Currency(finosId,isoCode,numericCode,description,issuingAuthorityId,roundingPrecision,roundingDirection,status,type) values ('a04acac8-a76f-11eb-bcbc-0242ac130002','FJD',242,'Fiji Dollar',52,2,'D','A','Ccy');\r\ninsert into currencySchema.Currency(finosId,isoCode,numericCode,description,issuingAuthorityId,roundingPrecision,roundingDirection,status,type) values ('a04ad0b8-a76f-11eb-bcbc-0242ac130002','GMD',270,'Dalasi',60,2,'D','A','Ccy');\r\ninsert into currencySchema.Currency(finosId,isoCode,numericCode,description,issuingAuthorityId,roundingPrecision,roundingDirection,status,type) values ('a04ad16c-a76f-11eb-bcbc-0242ac130002','GEL',981,'Lari',56,2,'D','A','Ccy');\r\ninsert into currencySchema.Currency(finosId,isoCode,numericCode,description,issuingAuthorityId,roundingPrecision,roundingDirection,status,type) values ('a04ad4d2-a76f-11eb-bcbc-0242ac130002','GHS',936,'Ghana Cedi',58,2,'D','A','Ccy');\r\ninsert into currencySchema.Currency(finosId,isoCode,numericCode,description,issuingAuthorityId,roundingPrecision,roundingDirection,status,type) values ('a04ad590-a76f-11eb-bcbc-0242ac130002','GIP',292,'Gibraltar Pound',59,2,'D','A','Ccy');\r\ninsert into currencySchema.Currency(finosId,isoCode,numericCode,description,issuingAuthorityId,roundingPrecision,roundingDirection,status,type) values ('a04adb44-a76f-11eb-bcbc-0242ac130002','GTQ',320,'Quetzal',65,2,'D','A','Ccy');\r\ninsert into currencySchema.Currency(finosId,isoCode,numericCode,description,issuingAuthorityId,roundingPrecision,roundingDirection,status,type) values ('a04adca2-a76f-11eb-bcbc-0242ac130002','GNF',324,'Guinean Franc',61,0,'D','A','Ccy');\r\ninsert into currencySchema.Currency(finosId,isoCode,numericCode,description,issuingAuthorityId,roundingPrecision,roundingDirection,status,type) values ('a04ade14-a76f-11eb-bcbc-0242ac130002','GYD',328,'Guyana Dollar',67,2,'D','A','Ccy');\r\ninsert into currencySchema.Currency(finosId,isoCode,numericCode,description,issuingAuthorityId,roundingPrecision,roundingDirection,status,type) values ('a04ae008-a76f-11eb-bcbc-0242ac130002','HTG',332,'Gourde',71,2,'D','A','Ccy');\r\ninsert into currencySchema.Currency(finosId,isoCode,numericCode,description,issuingAuthorityId,roundingPrecision,roundingDirection,status,type) values ('a04ae2ec-a76f-11eb-bcbc-0242ac130002','HNL',340,'Lempira',69,2,'D','A','Ccy');\r\ninsert into currencySchema.Currency(finosId,isoCode,numericCode,description,issuingAuthorityId,roundingPrecision,roundingDirection,status,type) values ('a04ae468-a76f-11eb-bcbc-0242ac130002','HKD',344,'Hong Kong Dollar',68,2,'D','A','Ccy');\r\ninsert into currencySchema.Currency(finosId,isoCode,numericCode,description,issuingAuthorityId,roundingPrecision,roundingDirection,status,type) values ('a04ae51c-a76f-11eb-bcbc-0242ac130002','HUF',348,'Forint',72,2,'D','A','Ccy');\r\ninsert into currencySchema.Currency(finosId,isoCode,numericCode,description,issuingAuthorityId,roundingPrecision,roundingDirection,status,type) values ('a04ae5da-a76f-11eb-bcbc-0242ac130002','ISK',352,'Iceland Krona',79,0,'D','A','Ccy');\r\ninsert into currencySchema.Currency(finosId,isoCode,numericCode,description,issuingAuthorityId,roundingPrecision,roundingDirection,status,type) values ('a04ae68e-a76f-11eb-bcbc-0242ac130002','INR',356,'Indian Rupee',76,2,'D','A','Ccy');\r\ninsert into currencySchema.Currency(finosId,isoCode,numericCode,description,issuingAuthorityId,roundingPrecision,roundingDirection,status,type) values ('a04ae8b4-a76f-11eb-bcbc-0242ac130002','IDR',360,'Rupiah',73,2,'D','A','Ccy');\r\ninsert into currencySchema.Currency(finosId,isoCode,numericCode,description,issuingAuthorityId,roundingPrecision,roundingDirection,status,type) values ('a04ae972-a76f-11eb-bcbc-0242ac130002','IRR',364,'Iranian Rial',78,2,'D','A','Ccy');\r\ninsert into currencySchema.Currency(finosId,isoCode,numericCode,description,issuingAuthorityId,roundingPrecision,roundingDirection,status,type) values ('a04aea26-a76f-11eb-bcbc-0242ac130002','IQD',368,'Iraqi Dinar',77,3,'D','A','Ccy');\r\ninsert into currencySchema.Currency(finosId,isoCode,numericCode,description,issuingAuthorityId,roundingPrecision,roundingDirection,status,type) values ('a04aedc8-a76f-11eb-bcbc-0242ac130002','ILS',376,'New Israeli Sheqel',75,2,'D','A','Ccy');\r\ninsert into currencySchema.Currency(finosId,isoCode,numericCode,description,issuingAuthorityId,roundingPrecision,roundingDirection,status,type) values ('a04aef62-a76f-11eb-bcbc-0242ac130002','JMD',388,'Jamaican Dollar',81,2,'D','A','Ccy');\r\ninsert into currencySchema.Currency(finosId,isoCode,numericCode,description,issuingAuthorityId,roundingPrecision,roundingDirection,status,type) values ('a04af03e-a76f-11eb-bcbc-0242ac130002','JPY',392,'Yen',83,0,'D','A','Ccy');\r\ninsert into currencySchema.Currency(finosId,isoCode,numericCode,description,issuingAuthorityId,roundingPrecision,roundingDirection,status,type) values ('a04af34a-a76f-11eb-bcbc-0242ac130002','JOD',400,'Jordanian Dinar',82,3,'D','A','Ccy');\r\ninsert into currencySchema.Currency(finosId,isoCode,numericCode,description,issuingAuthorityId,roundingPrecision,roundingDirection,status,type) values ('a04af408-a76f-11eb-bcbc-0242ac130002','KZT',398,'Tenge',92,2,'D','A','Ccy');\r\ninsert into currencySchema.Currency(finosId,isoCode,numericCode,description,issuingAuthorityId,roundingPrecision,roundingDirection,status,type) values ('a04af4da-a76f-11eb-bcbc-0242ac130002','KES',404,'Kenyan Shilling',84,2,'D','A','Ccy');\r\ninsert into currencySchema.Currency(finosId,isoCode,numericCode,description,issuingAuthorityId,roundingPrecision,roundingDirection,status,type) values ('a04af688-a76f-11eb-bcbc-0242ac130002','KPW',408,'North Korean Won',88,2,'D','A','Ccy');\r\ninsert into currencySchema.Currency(finosId,isoCode,numericCode,description,issuingAuthorityId,roundingPrecision,roundingDirection,status,type) values ('a04af868-a76f-11eb-bcbc-0242ac130002','KRW',410,'Won',89,0,'D','A','Ccy');\r\ninsert into currencySchema.Currency(finosId,isoCode,numericCode,description,issuingAuthorityId,roundingPrecision,roundingDirection,status,type) values ('a04af926-a76f-11eb-bcbc-0242ac130002','KWD',414,'Kuwaiti Dinar',90,3,'D','A','Ccy');\r\ninsert into currencySchema.Currency(finosId,isoCode,numericCode,description,issuingAuthorityId,roundingPrecision,roundingDirection,status,type) values ('a04af9da-a76f-11eb-bcbc-0242ac130002','KGS',417,'Som',85,2,'D','A','Ccy');\r\ninsert into currencySchema.Currency(finosId,isoCode,numericCode,description,issuingAuthorityId,roundingPrecision,roundingDirection,status,type) values ('a04afaac-a76f-11eb-bcbc-0242ac130002','LAK',418,'Lao Kip',93,2,'D','A','Ccy');\r\ninsert into currencySchema.Currency(finosId,isoCode,numericCode,description,issuingAuthorityId,roundingPrecision,roundingDirection,status,type) values ('a04afd4a-a76f-11eb-bcbc-0242ac130002','LBP',422,'Lebanese Pound',94,2,'D','A','Ccy');\r\ninsert into currencySchema.Currency(finosId,isoCode,numericCode,description,issuingAuthorityId,roundingPrecision,roundingDirection,status,type) values ('a04afe12-a76f-11eb-bcbc-0242ac130002','LSL',426,'Loti',97,2,'D','A','Ccy');\r\ninsert into currencySchema.Currency(finosId,isoCode,numericCode,description,issuingAuthorityId,roundingPrecision,roundingDirection,status,type) values ('a04aff98-a76f-11eb-bcbc-0242ac130002','LRD',430,'Liberian Dollar',96,2,'D','A','Ccy');\r\ninsert into currencySchema.Currency(finosId,isoCode,numericCode,description,issuingAuthorityId,roundingPrecision,roundingDirection,status,type) values ('a04b0146-a76f-11eb-bcbc-0242ac130002','LYD',434,'Libyan Dinar',101,3,'D','A','Ccy');\r\ninsert into currencySchema.Currency(finosId,isoCode,numericCode,description,issuingAuthorityId,roundingPrecision,roundingDirection,status,type) values ('a04b05d8-a76f-11eb-bcbc-0242ac130002','MOP',446,'Pataca',111,2,'D','A','Ccy');\r\ninsert into currencySchema.Currency(finosId,isoCode,numericCode,description,issuingAuthorityId,roundingPrecision,roundingDirection,status,type) values ('a04b0754-a76f-11eb-bcbc-0242ac130002','MGA',969,'Malagasy Ariary',106,2,'D','A','Ccy');\r\ninsert into currencySchema.Currency(finosId,isoCode,numericCode,description,issuingAuthorityId,roundingPrecision,roundingDirection,status,type) values ('a04b0808-a76f-11eb-bcbc-0242ac130002','MWK',454,'Malawi Kwacha',117,2,'D','A','Ccy');\r\ninsert into currencySchema.Currency(finosId,isoCode,numericCode,description,issuingAuthorityId,roundingPrecision,roundingDirection,status,type) values ('a04b08c6-a76f-11eb-bcbc-0242ac130002','MYR',458,'Malaysian Ringgit',119,2,'D','A','Ccy');\r\ninsert into currencySchema.Currency(finosId,isoCode,numericCode,description,issuingAuthorityId,roundingPrecision,roundingDirection,status,type) values ('a04b0984-a76f-11eb-bcbc-0242ac130002','MVR',462,'Rufiyaa',116,2,'D','A','Ccy');\r\ninsert into currencySchema.Currency(finosId,isoCode,numericCode,description,issuingAuthorityId,roundingPrecision,roundingDirection,status,type) values ('a04b0f60-a76f-11eb-bcbc-0242ac130002','MRU',929,'Ouguiya',113,2,'D','A','Ccy');\r\ninsert into currencySchema.Currency(finosId,isoCode,numericCode,description,issuingAuthorityId,roundingPrecision,roundingDirection,status,type) values ('a04b1028-a76f-11eb-bcbc-0242ac130002','MUR',480,'Mauritius Rupee',115,2,'D','A','Ccy');\r\ninsert into currencySchema.Currency(finosId,isoCode,numericCode,description,issuingAuthorityId,roundingPrecision,roundingDirection,status,type) values ('a04b1384-a76f-11eb-bcbc-0242ac130002','MXN',484,'Mexican Peso',118,2,'D','A','Ccy');\r\ninsert into currencySchema.Currency(finosId,isoCode,numericCode,description,issuingAuthorityId,roundingPrecision,roundingDirection,status,type) values ('a04b14ec-a76f-11eb-bcbc-0242ac130002','MDL',498,'Moldovan Leu',104,2,'D','A','Ccy');\r\ninsert into currencySchema.Currency(finosId,isoCode,numericCode,description,issuingAuthorityId,roundingPrecision,roundingDirection,status,type) values ('a04b1654-a76f-11eb-bcbc-0242ac130002','MNT',496,'Tugrik',110,2,'D','A','Ccy');\r\ninsert into currencySchema.Currency(finosId,isoCode,numericCode,description,issuingAuthorityId,roundingPrecision,roundingDirection,status,type) values ('a04b1a78-a76f-11eb-bcbc-0242ac130002','MAD',504,'Moroccan Dirham',102,2,'D','A','Ccy');\r\ninsert into currencySchema.Currency(finosId,isoCode,numericCode,description,issuingAuthorityId,roundingPrecision,roundingDirection,status,type) values ('a04b1b2c-a76f-11eb-bcbc-0242ac130002','MZN',943,'Mozambique Metical',120,2,'D','A','Ccy');\r\ninsert into currencySchema.Currency(finosId,isoCode,numericCode,description,issuingAuthorityId,roundingPrecision,roundingDirection,status,type) values ('a04b1be0-a76f-11eb-bcbc-0242ac130002','MMK',104,'Kyat',109,2,'D','A','Ccy');\r\ninsert into currencySchema.Currency(finosId,isoCode,numericCode,description,issuingAuthorityId,roundingPrecision,roundingDirection,status,type) values ('a04b1d5c-a76f-11eb-bcbc-0242ac130002','NAD',516,'Namibia Dollar',121,2,'D','A','Ccy');\r\ninsert into currencySchema.Currency(finosId,isoCode,numericCode,description,issuingAuthorityId,roundingPrecision,roundingDirection,status,type) values ('a04b1fdc-a76f-11eb-bcbc-0242ac130002','NPR',524,'Nepalese Rupee',126,2,'D','A','Ccy');\r\ninsert into currencySchema.Currency(finosId,isoCode,numericCode,description,issuingAuthorityId,roundingPrecision,roundingDirection,status,type) values ('a04b2216-a76f-11eb-bcbc-0242ac130002','XPF',953,'CFP Franc',194,0,'D','A','Ccy');\r\ninsert into currencySchema.Currency(finosId,isoCode,numericCode,description,issuingAuthorityId,roundingPrecision,roundingDirection,status,type) values ('a04b22ca-a76f-11eb-bcbc-0242ac130002','NZD',554,'New Zealand Dollar',127,2,'D','A','Ccy');\r\ninsert into currencySchema.Currency(finosId,isoCode,numericCode,description,issuingAuthorityId,roundingPrecision,roundingDirection,status,type) values ('a04b24be-a76f-11eb-bcbc-0242ac130002','NIO',558,'Cordoba Oro',123,2,'D','A','Ccy');\r\ninsert into currencySchema.Currency(finosId,isoCode,numericCode,description,issuingAuthorityId,roundingPrecision,roundingDirection,status,type) values ('a04b2630-a76f-11eb-bcbc-0242ac130002','NGN',566,'Naira',122,2,'D','A','Ccy');\r\ninsert into currencySchema.Currency(finosId,isoCode,numericCode,description,issuingAuthorityId,roundingPrecision,roundingDirection,status,type) values ('a04b06a0-a76f-11eb-bcbc-0242ac130002','MKD',807,'Denar',107,2,'D','A','Ccy');\r\ninsert into currencySchema.Currency(finosId,isoCode,numericCode,description,issuingAuthorityId,roundingPrecision,roundingDirection,status,type) values ('a04b2afe-a76f-11eb-bcbc-0242ac130002','NOK',578,'Norwegian Krone',125,2,'D','A','Ccy');\r\ninsert into currencySchema.Currency(finosId,isoCode,numericCode,description,issuingAuthorityId,roundingPrecision,roundingDirection,status,type) values ('a04b2c70-a76f-11eb-bcbc-0242ac130002','OMR',512,'Rial Omani',128,3,'D','A','Ccy');\r\ninsert into currencySchema.Currency(finosId,isoCode,numericCode,description,issuingAuthorityId,roundingPrecision,roundingDirection,status,type) values ('a04b2d38-a76f-11eb-bcbc-0242ac130002','PKR',586,'Pakistan Rupee',133,2,'D','A','Ccy');\r\ninsert into currencySchema.Currency(finosId,isoCode,numericCode,description,issuingAuthorityId,roundingPrecision,roundingDirection,status,type) values ('a04b2f54-a76f-11eb-bcbc-0242ac130002','PAB',590,'Balboa',129,2,'D','A','Ccy');\r\ninsert into currencySchema.Currency(finosId,isoCode,numericCode,description,issuingAuthorityId,roundingPrecision,roundingDirection,status,type) values ('a04b32b0-a76f-11eb-bcbc-0242ac130002','PGK',598,'Kina',131,2,'D','A','Ccy');\r\ninsert into currencySchema.Currency(finosId,isoCode,numericCode,description,issuingAuthorityId,roundingPrecision,roundingDirection,status,type) values ('a04b344a-a76f-11eb-bcbc-0242ac130002','PYG',600,'Guarani',137,0,'D','A','Ccy');\r\ninsert into currencySchema.Currency(finosId,isoCode,numericCode,description,issuingAuthorityId,roundingPrecision,roundingDirection,status,type) values ('a04b3512-a76f-11eb-bcbc-0242ac130002','PEN',604,'Sol',130,2,'D','A','Ccy');\r\ninsert into currencySchema.Currency(finosId,isoCode,numericCode,description,issuingAuthorityId,roundingPrecision,roundingDirection,status,type) values ('a04b35da-a76f-11eb-bcbc-0242ac130002','PHP',608,'Philippine Peso',132,2,'D','A','Ccy');\r\ninsert into currencySchema.Currency(finosId,isoCode,numericCode,description,issuingAuthorityId,roundingPrecision,roundingDirection,status,type) values ('a04b385a-a76f-11eb-bcbc-0242ac130002','PLN',985,'Zloty',134,2,'D','A','Ccy');\r\ninsert into currencySchema.Currency(finosId,isoCode,numericCode,description,issuingAuthorityId,roundingPrecision,roundingDirection,status,type) values ('a04b3b52-a76f-11eb-bcbc-0242ac130002','QAR',634,'Qatari Rial',138,2,'D','A','Ccy');\r\ninsert into currencySchema.Currency(finosId,isoCode,numericCode,description,issuingAuthorityId,roundingPrecision,roundingDirection,status,type) values ('a04b3d28-a76f-11eb-bcbc-0242ac130002','RON',946,'Romanian Leu',140,2,'D','A','Ccy');\r\ninsert into currencySchema.Currency(finosId,isoCode,numericCode,description,issuingAuthorityId,roundingPrecision,roundingDirection,status,type) values ('a04b3efe-a76f-11eb-bcbc-0242ac130002','RUB',643,'Russian Ruble',142,2,'D','A','Ccy');\r\ninsert into currencySchema.Currency(finosId,isoCode,numericCode,description,issuingAuthorityId,roundingPrecision,roundingDirection,status,type) values ('a04b3fd0-a76f-11eb-bcbc-0242ac130002','RWF',646,'Rwanda Franc',143,0,'D','A','Ccy');\r\ninsert into currencySchema.Currency(finosId,isoCode,numericCode,description,issuingAuthorityId,roundingPrecision,roundingDirection,status,type) values ('a04b4214-a76f-11eb-bcbc-0242ac130002','SHP',654,'Saint Helena Pound',150,2,'D','A','Ccy');\r\ninsert into currencySchema.Currency(finosId,isoCode,numericCode,description,issuingAuthorityId,roundingPrecision,roundingDirection,status,type) values ('a04b489a-a76f-11eb-bcbc-0242ac130002','WST',882,'Tala',182,2,'D','A','Ccy');\r\ninsert into currencySchema.Currency(finosId,isoCode,numericCode,description,issuingAuthorityId,roundingPrecision,roundingDirection,status,type) values ('a04b4ab6-a76f-11eb-bcbc-0242ac130002','STN',930,'Dobra',158,2,'D','A','Ccy');\r\ninsert into currencySchema.Currency(finosId,isoCode,numericCode,description,issuingAuthorityId,roundingPrecision,roundingDirection,status,type) values ('a04b4b7e-a76f-11eb-bcbc-0242ac130002','SAR',682,'Saudi Riyal',144,2,'D','A','Ccy');\r\ninsert into currencySchema.Currency(finosId,isoCode,numericCode,description,issuingAuthorityId,roundingPrecision,roundingDirection,status,type) values ('a04b4db8-a76f-11eb-bcbc-0242ac130002','RSD',941,'Serbian Dinar',141,2,'D','A','Ccy');\r\ninsert into currencySchema.Currency(finosId,isoCode,numericCode,description,issuingAuthorityId,roundingPrecision,roundingDirection,status,type) values ('a04b4f02-a76f-11eb-bcbc-0242ac130002','SCR',690,'Seychelles Rupee',146,2,'D','A','Ccy');\r\ninsert into currencySchema.Currency(finosId,isoCode,numericCode,description,issuingAuthorityId,roundingPrecision,roundingDirection,status,type) values ('a04b4fc0-a76f-11eb-bcbc-0242ac130002','SLL',694,'Leone',153,2,'D','A','Ccy');\r\ninsert into currencySchema.Currency(finosId,isoCode,numericCode,description,issuingAuthorityId,roundingPrecision,roundingDirection,status,type) values ('a04b51f0-a76f-11eb-bcbc-0242ac130002','SGD',702,'Singapore Dollar',149,2,'D','A','Ccy');\r\ninsert into currencySchema.Currency(finosId,isoCode,numericCode,description,issuingAuthorityId,roundingPrecision,roundingDirection,status,type) values ('a04b563c-a76f-11eb-bcbc-0242ac130002','SBD',090,'Solomon Islands Dollar',145,2,'D','A','Ccy');\r\ninsert into currencySchema.Currency(finosId,isoCode,numericCode,description,issuingAuthorityId,roundingPrecision,roundingDirection,status,type) values ('a04b56fa-a76f-11eb-bcbc-0242ac130002','SOS',706,'Somali Shilling',155,2,'D','A','Ccy');\r\ninsert into currencySchema.Currency(finosId,isoCode,numericCode,description,issuingAuthorityId,roundingPrecision,roundingDirection,status,type) values ('a04b581c-a76f-11eb-bcbc-0242ac130002','ZAR',710,'Rand',192,2,'D','A','Ccy');\r\ninsert into currencySchema.Currency(finosId,isoCode,numericCode,description,issuingAuthorityId,roundingPrecision,roundingDirection,status,type) values ('a04b593e-a76f-11eb-bcbc-0242ac130002','SSP',728,'South Sudanese Pound',157,2,'D','A','Ccy');\r\ninsert into currencySchema.Currency(finosId,isoCode,numericCode,description,issuingAuthorityId,roundingPrecision,roundingDirection,status,type) values ('a04b5b3c-a76f-11eb-bcbc-0242ac130002','LKR',144,'Sri Lanka Rupee',95,2,'D','A','Ccy');\r\ninsert into currencySchema.Currency(finosId,isoCode,numericCode,description,issuingAuthorityId,roundingPrecision,roundingDirection,status,type) values ('a04b5cae-a76f-11eb-bcbc-0242ac130002','SDG',938,'Sudanese Pound',147,2,'D','A','Ccy');\r\ninsert into currencySchema.Currency(finosId,isoCode,numericCode,description,issuingAuthorityId,roundingPrecision,roundingDirection,status,type) values ('a04b5d6c-a76f-11eb-bcbc-0242ac130002','SRD',968,'Surinam Dollar',156,2,'D','A','Ccy');\r\ninsert into currencySchema.Currency(finosId,isoCode,numericCode,description,issuingAuthorityId,roundingPrecision,roundingDirection,status,type) values ('a04b5f92-a76f-11eb-bcbc-0242ac130002','SEK',752,'Swedish Krona',148,2,'D','A','Ccy');\r\ninsert into currencySchema.Currency(finosId,isoCode,numericCode,description,issuingAuthorityId,roundingPrecision,roundingDirection,status,type) values ('a04b6118-a76f-11eb-bcbc-0242ac130002','CHF',756,'Swiss Franc',31,2,'D','A','Ccy');\r\ninsert into currencySchema.Currency(finosId,isoCode,numericCode,description,issuingAuthorityId,roundingPrecision,roundingDirection,status,type) values ('a04b61e0-a76f-11eb-bcbc-0242ac130002','SYP',760,'Syrian Pound',160,2,'D','A','Ccy');\r\ninsert into currencySchema.Currency(finosId,isoCode,numericCode,description,issuingAuthorityId,roundingPrecision,roundingDirection,status,type) values ('a04b6334-a76f-11eb-bcbc-0242ac130002','TWD',901,'New Taiwan Dollar',171,2,'D','A','Ccy');\r\ninsert into currencySchema.Currency(finosId,isoCode,numericCode,description,issuingAuthorityId,roundingPrecision,roundingDirection,status,type) values ('a04b63e8-a76f-11eb-bcbc-0242ac130002','TJS',972,'Somoni',164,2,'D','A','Ccy');\r\ninsert into currencySchema.Currency(finosId,isoCode,numericCode,description,issuingAuthorityId,roundingPrecision,roundingDirection,status,type) values ('a04b6514-a76f-11eb-bcbc-0242ac130002','TZS',834,'Tanzanian Shilling',172,2,'D','A','Ccy');\r\ninsert into currencySchema.Currency(finosId,isoCode,numericCode,description,issuingAuthorityId,roundingPrecision,roundingDirection,status,type) values ('a04b6636-a76f-11eb-bcbc-0242ac130002','THB',764,'Baht',163,2,'D','A','Ccy');\r\ninsert into currencySchema.Currency(finosId,isoCode,numericCode,description,issuingAuthorityId,roundingPrecision,roundingDirection,status,type) values ('a04b6afa-a76f-11eb-bcbc-0242ac130002','TOP',776,'Pa’anga',168,2,'D','A','Ccy');\r\ninsert into currencySchema.Currency(finosId,isoCode,numericCode,description,issuingAuthorityId,roundingPrecision,roundingDirection,status,type) values ('a04b6bc2-a76f-11eb-bcbc-0242ac130002','TTD',780,'Trinidad and Tobago Dollar',170,2,'D','A','Ccy');\r\ninsert into currencySchema.Currency(finosId,isoCode,numericCode,description,issuingAuthorityId,roundingPrecision,roundingDirection,status,type) values ('a04b6cf8-a76f-11eb-bcbc-0242ac130002','TND',788,'Tunisian Dinar',167,3,'D','A','Ccy');\r\ninsert into currencySchema.Currency(finosId,isoCode,numericCode,description,issuingAuthorityId,roundingPrecision,roundingDirection,status,type) values ('a04b6e38-a76f-11eb-bcbc-0242ac130002','TRY',949,'Turkish Lira',169,2,'D','A','Ccy');\r\ninsert into currencySchema.Currency(finosId,isoCode,numericCode,description,issuingAuthorityId,roundingPrecision,roundingDirection,status,type) values ('a04b6f5a-a76f-11eb-bcbc-0242ac130002','TMT',934,'Turkmenistan New Manat',166,2,'D','A','Ccy');\r\ninsert into currencySchema.Currency(finosId,isoCode,numericCode,description,issuingAuthorityId,roundingPrecision,roundingDirection,status,type) values ('a04b725c-a76f-11eb-bcbc-0242ac130002','UGX',800,'Uganda Shilling',174,0,'D','A','Ccy');\r\ninsert into currencySchema.Currency(finosId,isoCode,numericCode,description,issuingAuthorityId,roundingPrecision,roundingDirection,status,type) values ('a04b739c-a76f-11eb-bcbc-0242ac130002','UAH',980,'Hryvnia',173,2,'D','A','Ccy');\r\ninsert into currencySchema.Currency(finosId,isoCode,numericCode,description,issuingAuthorityId,roundingPrecision,roundingDirection,status,type) values ('a04b74aa-a76f-11eb-bcbc-0242ac130002','AED',784,'UAE Dirham',2,2,'D','A','Ccy');\r\ninsert into currencySchema.Currency(finosId,isoCode,numericCode,description,issuingAuthorityId,roundingPrecision,roundingDirection,status,type) values ('a04b75ea-a76f-11eb-bcbc-0242ac130002','GBP',826,'Pound Sterling',55,2,'D','A','Ccy');\r\ninsert into currencySchema.Currency(finosId,isoCode,numericCode,description,issuingAuthorityId,roundingPrecision,roundingDirection,status,type) values ('a04b786a-a76f-11eb-bcbc-0242ac130002','USD',840,'US Dollar',175,2,'D','A','Ccy');\r\ninsert into currencySchema.Currency(finosId,isoCode,numericCode,description,issuingAuthorityId,roundingPrecision,roundingDirection,status,type) values ('a04b791e-a76f-11eb-bcbc-0242ac130002','UYU',858,'Peso Uruguayo',176,2,'D','A','Ccy');\r\ninsert into currencySchema.Currency(finosId,isoCode,numericCode,description,issuingAuthorityId,roundingPrecision,roundingDirection,status,type) values ('a04b7acc-a76f-11eb-bcbc-0242ac130002','UYW',927,'Unidad Previsional',176,4,'D','A','Ccy');\r\ninsert into currencySchema.Currency(finosId,isoCode,numericCode,description,issuingAuthorityId,roundingPrecision,roundingDirection,status,type) values ('a04b7b8a-a76f-11eb-bcbc-0242ac130002','UZS',860,'Uzbekistan Sum',177,2,'D','A','Ccy');\r\ninsert into currencySchema.Currency(finosId,isoCode,numericCode,description,issuingAuthorityId,roundingPrecision,roundingDirection,status,type) values ('a04b7cd4-a76f-11eb-bcbc-0242ac130002','VUV',548,'Vatu',181,0,'D','A','Ccy');\r\ninsert into currencySchema.Currency(finosId,isoCode,numericCode,description,issuingAuthorityId,roundingPrecision,roundingDirection,status,type) values ('a04b7dec-a76f-11eb-bcbc-0242ac130002','VES',928,'Bolívar Soberano',179,2,'D','A','Ccy');\r\ninsert into currencySchema.Currency(finosId,isoCode,numericCode,description,issuingAuthorityId,roundingPrecision,roundingDirection,status,type) values ('a04b7eb4-a76f-11eb-bcbc-0242ac130002','VND',704,'Dong',180,0,'D','A','Ccy');\r\ninsert into currencySchema.Currency(finosId,isoCode,numericCode,description,issuingAuthorityId,roundingPrecision,roundingDirection,status,type) values ('a04b84fe-a76f-11eb-bcbc-0242ac130002','YER',886,'Yemeni Rial',183,2,'D','A','Ccy');\r\ninsert into currencySchema.Currency(finosId,isoCode,numericCode,description,issuingAuthorityId,roundingPrecision,roundingDirection,status,type) values ('a04b85f8-a76f-11eb-bcbc-0242ac130002','ZMW',967,'Zambian Kwacha',186,2,'D','A','Ccy');\r\ninsert into currencySchema.Currency(finosId,isoCode,numericCode,description,issuingAuthorityId,roundingPrecision,roundingDirection,status,type) values ('a04b8706-a76f-11eb-bcbc-0242ac130002','ZWL',932,'Zimbabwe Dollar',187,2,'D','A','Ccy');\r\ninsert into currencySchema.Currency(finosId,isoCode,numericCode,description,status,type) values ('a04b881e-a76f-11eb-bcbc-0242ac130002','AFA',004,'Afghani','I','Ccy');\r\ninsert into currencySchema.Currency(finosId,isoCode,numericCode,description,status,type) values ('a04b8918-a76f-11eb-bcbc-0242ac130002','FIM',246,'Markka','I','Ccy');\r\ninsert into currencySchema.Currency(finosId,isoCode,numericCode,description,status,type) values ('a04b8a62-a76f-11eb-bcbc-0242ac130002','ALK',008,'Old Lek','I','Ccy');\r\ninsert into currencySchema.Currency(finosId,isoCode,numericCode,description,status,type) values ('a04b8c10-a76f-11eb-bcbc-0242ac130002','ADP',020,'Andorran Peseta','I','Ccy');\r\ninsert into currencySchema.Currency(finosId,isoCode,numericCode,description,status,type) values ('a04b8cf6-a76f-11eb-bcbc-0242ac130002','ESP',724,'Spanish Peseta','I','Ccy');\r\ninsert into currencySchema.Currency(finosId,isoCode,numericCode,description,status,type) values ('a04b8eb8-a76f-11eb-bcbc-0242ac130002','FRF',250,'French Franc','I','Ccy');\r\ninsert into currencySchema.Currency(finosId,isoCode,numericCode,description,status,type) values ('a04b8f76-a76f-11eb-bcbc-0242ac130002','AOK',024,'Kwanza','I','Ccy');\r\ninsert into currencySchema.Currency(finosId,isoCode,numericCode,description,status,type) values ('a04b9124-a76f-11eb-bcbc-0242ac130002','AON',024,'New Kwanza','I','Ccy');\r\ninsert into currencySchema.Currency(finosId,isoCode,numericCode,description,status,type) values ('a04b9278-a76f-11eb-bcbc-0242ac130002','AOR',982,'Kwanza Reajustado','I','Ccy');\r\ninsert into currencySchema.Currency(finosId,isoCode,numericCode,description,status,type) values ('a04b935e-a76f-11eb-bcbc-0242ac130002','ARA',032,'Austral','I','Ccy');\r\ninsert into currencySchema.Currency(finosId,isoCode,numericCode,description,status,type) values ('a04b9494-a76f-11eb-bcbc-0242ac130002','ARP',032,'Peso Argentino','I','Ccy');\r\ninsert into currencySchema.Currency(finosId,isoCode,numericCode,description,status,type) values ('a04b95ac-a76f-11eb-bcbc-0242ac130002','ARY',032,'Peso','I','Ccy');\r\ninsert into currencySchema.Currency(finosId,isoCode,numericCode,description,status,type) values ('a04b96ce-a76f-11eb-bcbc-0242ac130002','RUR',810,'Russian Ruble','I','Ccy');\r\ninsert into currencySchema.Currency(finosId,isoCode,numericCode,description,status,type) values ('a04b97f0-a76f-11eb-bcbc-0242ac130002','ATS',040,'Schilling','I','Ccy');\r\ninsert into currencySchema.Currency(finosId,isoCode,numericCode,description,status,type) values ('a04b994e-a76f-11eb-bcbc-0242ac130002','AYM',945,'Azerbaijan Manat','I','Ccy');\r\ninsert into currencySchema.Currency(finosId,isoCode,numericCode,description,status,type) values ('a04b9a16-a76f-11eb-bcbc-0242ac130002','AZM',031,'Azerbaijanian Manat','I','Ccy');\r\ninsert into currencySchema.Currency(finosId,isoCode,numericCode,description,status,type) values ('a04b9afc-a76f-11eb-bcbc-0242ac130002','RUR',810,'Russian Ruble','I','Ccy');\r\ninsert into currencySchema.Currency(finosId,isoCode,numericCode,description,status,type) values ('a04b9c3c-a76f-11eb-bcbc-0242ac130002','BYB',112,'Belarusian Ruble','I','Ccy');\r\ninsert into currencySchema.Currency(finosId,isoCode,numericCode,description,status,type) values ('a04b9d72-a76f-11eb-bcbc-0242ac130002','BYR',974,'Belarusian Ruble','I','Ccy');\r\ninsert into currencySchema.Currency(finosId,isoCode,numericCode,description,status,type) values ('a04b9e62-a76f-11eb-bcbc-0242ac130002','RUR',810,'Russian Ruble','I','Ccy');\r\ninsert into currencySchema.Currency(finosId,isoCode,numericCode,description,status,type) values ('a04b9fca-a76f-11eb-bcbc-0242ac130002','BEC',993,'Convertible Franc','I','Ccy');\r\ninsert into currencySchema.Currency(finosId,isoCode,numericCode,description,status,type) values ('a04ba114-a76f-11eb-bcbc-0242ac130002','BEF',056,'Belgian Franc','I','Ccy');\r\ninsert into currencySchema.Currency(finosId,isoCode,numericCode,description,status,type) values ('a04ba25e-a76f-11eb-bcbc-0242ac130002','BEL',992,'Financial Franc','I','Ccy');\r\ninsert into currencySchema.Currency(finosId,isoCode,numericCode,description,status,type) values ('a04ba394-a76f-11eb-bcbc-0242ac130002','BOP',068,'Peso boliviano','I','Ccy');\r\ninsert into currencySchema.Currency(finosId,isoCode,numericCode,description,status,type) values ('a04ba4ac-a76f-11eb-bcbc-0242ac130002','BAD',070,'Dinar','I','Ccy');\r\ninsert into currencySchema.Currency(finosId,isoCode,numericCode,description,status,type) values ('a04ba60a-a76f-11eb-bcbc-0242ac130002','BRB',076,'Cruzeiro','I','Ccy');\r\ninsert into currencySchema.Currency(finosId,isoCode,numericCode,description,status,type) values ('a04ba754-a76f-11eb-bcbc-0242ac130002','BRC',076,'Cruzado','I','Ccy');\r\ninsert into currencySchema.Currency(finosId,isoCode,numericCode,description,status,type) values ('a04ba88a-a76f-11eb-bcbc-0242ac130002','BRE',076,'Cruzeiro','I','Ccy');\r\ninsert into currencySchema.Currency(finosId,isoCode,numericCode,description,status,type) values ('a04ba9b6-a76f-11eb-bcbc-0242ac130002','BRN',076,'New Cruzado','I','Ccy');\r\ninsert into currencySchema.Currency(finosId,isoCode,numericCode,description,status,type) values ('a04bab1e-a76f-11eb-bcbc-0242ac130002','BRR',987,'Cruzeiro Real','I','Ccy');\r\ninsert into currencySchema.Currency(finosId,isoCode,numericCode,description,status,type) values ('a04bac2c-a76f-11eb-bcbc-0242ac130002','BGJ',100,'Lev A/52','I','Ccy');\r\ninsert into currencySchema.Currency(finosId,isoCode,numericCode,description,status,type) values ('a04bad6c-a76f-11eb-bcbc-0242ac130002','BGK',100,'Lev A/62','I','Ccy');\r\ninsert into currencySchema.Currency(finosId,isoCode,numericCode,description,status,type) values ('a04bae84-a76f-11eb-bcbc-0242ac130002','BGL',100,'Lev','I','Ccy');\r\ninsert into currencySchema.Currency(finosId,isoCode,numericCode,description,status,type) values ('a04bafce-a76f-11eb-bcbc-0242ac130002','BUK',104,'Kyat','I','Ccy');\r\ninsert into currencySchema.Currency(finosId,isoCode,numericCode,description,status,type) values ('a04bb190-a76f-11eb-bcbc-0242ac130002','HRD',191,'Croatian Dinar','I','Ccy');\r\ninsert into currencySchema.Currency(finosId,isoCode,numericCode,description,status,type) values ('a04bb316-a76f-11eb-bcbc-0242ac130002','HRK',191,'Croatian Kuna','I','Ccy');\r\ninsert into currencySchema.Currency(finosId,isoCode,numericCode,description,status,type) values ('a04bb44c-a76f-11eb-bcbc-0242ac130002','CYP',196,'Cyprus Pound','I','Ccy');\r\ninsert into currencySchema.Currency(finosId,isoCode,numericCode,description,status,type) values ('a04bb5a0-a76f-11eb-bcbc-0242ac130002','CSJ',203,'Krona A/53','I','Ccy');\r\ninsert into currencySchema.Currency(finosId,isoCode,numericCode,description,status,type) values ('a04bb6f4-a76f-11eb-bcbc-0242ac130002','CSK',200,'Koruna','I','Ccy');\r\ninsert into currencySchema.Currency(finosId,isoCode,numericCode,description,status,type) values ('a04bb8ac-a76f-11eb-bcbc-0242ac130002','ECS',218,'Sucre','I','Ccy');\r\ninsert into currencySchema.Currency(finosId,isoCode,numericCode,description,status,type) values ('a04bba28-a76f-11eb-bcbc-0242ac130002','ECV',983,'Unidad de Valor Constante (UVC)','I','Ccy');\r\ninsert into currencySchema.Currency(finosId,isoCode,numericCode,description,status,type) values ('a04bbb5e-a76f-11eb-bcbc-0242ac130002','GQE',226,'Ekwele','I','Ccy');\r\ninsert into currencySchema.Currency(finosId,isoCode,numericCode,description,status,type) values ('a04bbd98-a76f-11eb-bcbc-0242ac130002','EEK',233,'Kroon','I','Ccy');\r\ninsert into currencySchema.Currency(finosId,isoCode,numericCode,description,status,type) values ('a04bbf28-a76f-11eb-bcbc-0242ac130002','FIM',246,'Markka','I','Ccy');\r\ninsert into currencySchema.Currency(finosId,isoCode,numericCode,description,status,type) values ('a04bc0e0-a76f-11eb-bcbc-0242ac130002','FRF',250,'French Franc','I','Ccy');\r\ninsert into currencySchema.Currency(finosId,isoCode,numericCode,description,status,type) values ('a04bc2de-a76f-11eb-bcbc-0242ac130002','FRF',250,'French Franc','I','Ccy');\r\ninsert into currencySchema.Currency(finosId,isoCode,numericCode,description,status,type) values ('a04bc4dc-a76f-11eb-bcbc-0242ac130002','FRF',250,'French Franc','I','Ccy');\r\ninsert into currencySchema.Currency(finosId,isoCode,numericCode,description,status,type) values ('a04bc680-a76f-11eb-bcbc-0242ac130002','GEK',268,'Georgian Coupon','I','Ccy');\r\ninsert into currencySchema.Currency(finosId,isoCode,numericCode,description,status,type) values ('a04bc860-a76f-11eb-bcbc-0242ac130002','RUR',810,'Russian Ruble','I','Ccy');\r\ninsert into currencySchema.Currency(finosId,isoCode,numericCode,description,status,type) values ('a04bca4a-a76f-11eb-bcbc-0242ac130002','DDM',278,'Mark der DDR','I','Ccy');\r\ninsert into currencySchema.Currency(finosId,isoCode,numericCode,description,status,type) values ('a04c4984-a76f-11eb-bcbc-0242ac130002','DEM',276,'Deutsche Mark','I','Ccy');\r\ninsert into currencySchema.Currency(finosId,isoCode,numericCode,description,status,type) values ('a04c4af6-a76f-11eb-bcbc-0242ac130002','GHC',288,'Cedi','I','Ccy');\r\ninsert into currencySchema.Currency(finosId,isoCode,numericCode,description,status,type) values ('a04c4bf0-a76f-11eb-bcbc-0242ac130002','GHP',939,'Ghana Cedi','I','Ccy');\r\ninsert into currencySchema.Currency(finosId,isoCode,numericCode,description,status,type) values ('a04c4e02-a76f-11eb-bcbc-0242ac130002','GRD',300,'Drachma','I','Ccy');\r\ninsert into currencySchema.Currency(finosId,isoCode,numericCode,description,status,type) values ('a04c4eca-a76f-11eb-bcbc-0242ac130002','FRF',250,'French Franc','I','Ccy');\r\ninsert into currencySchema.Currency(finosId,isoCode,numericCode,description,status,type) values ('a04c4f9c-a76f-11eb-bcbc-0242ac130002','GNE',324,'Syli','I','Ccy');\r\ninsert into currencySchema.Currency(finosId,isoCode,numericCode,description,status,type) values ('a04c5064-a76f-11eb-bcbc-0242ac130002','GNS',324,'Syli','I','Ccy');\r\ninsert into currencySchema.Currency(finosId,isoCode,numericCode,description,status,type) values ('a04c512c-a76f-11eb-bcbc-0242ac130002','GWE',624,'Guinea Escudo','I','Ccy');\r\ninsert into currencySchema.Currency(finosId,isoCode,numericCode,description,status,type) values ('a04c537a-a76f-11eb-bcbc-0242ac130002','GWP',624,'Guinea-Bissau Peso','I','Ccy');\r\ninsert into currencySchema.Currency(finosId,isoCode,numericCode,description,status,type) values ('a04c544c-a76f-11eb-bcbc-0242ac130002','ITL',380,'Italian Lira','I','Ccy');\r\ninsert into currencySchema.Currency(finosId,isoCode,numericCode,description,status,type) values ('a04c550a-a76f-11eb-bcbc-0242ac130002','ISJ',352,'Old Krona','I','Ccy');\r\ninsert into currencySchema.Currency(finosId,isoCode,numericCode,description,status,type) values ('a04c55d2-a76f-11eb-bcbc-0242ac130002','IEP',372,'Irish Pound','I','Ccy');\r\ninsert into currencySchema.Currency(finosId,isoCode,numericCode,description,status,type) values ('a04c5690-a76f-11eb-bcbc-0242ac130002','ILP',376,'Pound','I','Ccy');\r\ninsert into currencySchema.Currency(finosId,isoCode,numericCode,description,status,type) values ('a04c5744-a76f-11eb-bcbc-0242ac130002','ILR',376,'Old Shekel','I','Ccy');\r\ninsert into currencySchema.Currency(finosId,isoCode,numericCode,description,status,type) values ('a04c5802-a76f-11eb-bcbc-0242ac130002','ITL',380,'Italian Lira','I','Ccy');\r\ninsert into currencySchema.Currency(finosId,isoCode,numericCode,description,status,type) values ('a04c5a3c-a76f-11eb-bcbc-0242ac130002','RUR',810,'Russian Ruble','I','Ccy');\r\ninsert into currencySchema.Currency(finosId,isoCode,numericCode,description,status,type) values ('a04c5afa-a76f-11eb-bcbc-0242ac130002','RUR',810,'Russian Ruble','I','Ccy');\r\ninsert into currencySchema.Currency(finosId,isoCode,numericCode,description,status,type) values ('a04c5bb8-a76f-11eb-bcbc-0242ac130002','LAJ',418,'Pathet Lao Kip','I','Ccy');\r\ninsert into currencySchema.Currency(finosId,isoCode,numericCode,description,status,type) values ('a04c5c76-a76f-11eb-bcbc-0242ac130002','LVL',428,'Latvian Lats','I','Ccy');\r\ninsert into currencySchema.Currency(finosId,isoCode,numericCode,description,status,type) values ('a04c5d3e-a76f-11eb-bcbc-0242ac130002','LVR',428,'Latvian Ruble','I','Ccy');\r\ninsert into currencySchema.Currency(finosId,isoCode,numericCode,description,status,type) values ('a04c5df2-a76f-11eb-bcbc-0242ac130002','LSM',426,'Loti','I','Ccy');\r\ninsert into currencySchema.Currency(finosId,isoCode,numericCode,description,status,type) values ('a04c60e0-a76f-11eb-bcbc-0242ac130002','ZAL',991,'Financial Rand','I','Ccy');\r\ninsert into currencySchema.Currency(finosId,isoCode,numericCode,description,status,type) values ('a04c61a8-a76f-11eb-bcbc-0242ac130002','LTL',440,'Lithuanian Litas','I','Ccy');\r\ninsert into currencySchema.Currency(finosId,isoCode,numericCode,description,status,type) values ('a04c6270-a76f-11eb-bcbc-0242ac130002','LTT',440,'Talonas','I','Ccy');\r\ninsert into currencySchema.Currency(finosId,isoCode,numericCode,description,status,type) values ('a04c632e-a76f-11eb-bcbc-0242ac130002','LUC',989,'Luxembourg Convertible Franc','I','Ccy');\r\ninsert into currencySchema.Currency(finosId,isoCode,numericCode,description,status,type) values ('a04c63e2-a76f-11eb-bcbc-0242ac130002','LUF',442,'Luxembourg Franc','I','Ccy');\r\ninsert into currencySchema.Currency(finosId,isoCode,numericCode,description,status,type) values ('a04c64a0-a76f-11eb-bcbc-0242ac130002','LUL',988,'Luxembourg Financial Franc','I','Ccy');\r\ninsert into currencySchema.Currency(finosId,isoCode,numericCode,description,status,type) values ('a04c655e-a76f-11eb-bcbc-0242ac130002','MGF',450,'Malagasy Franc','I','Ccy');\r\ninsert into currencySchema.Currency(finosId,isoCode,numericCode,description,status,type) values ('a04c6824-a76f-11eb-bcbc-0242ac130002','MWK',454,'Kwacha','I','Ccy');\r\ninsert into currencySchema.Currency(finosId,isoCode,numericCode,description,status,type) values ('a04c68ec-a76f-11eb-bcbc-0242ac130002','MVQ',462,'Maldive Rupee','I','Ccy');\r\ninsert into currencySchema.Currency(finosId,isoCode,numericCode,description,status,type) values ('a04c6b4e-a76f-11eb-bcbc-0242ac130002','MLF',466,'Mali Franc','I','Ccy');\r\ninsert into currencySchema.Currency(finosId,isoCode,numericCode,description,status,type) values ('a04c6c2a-a76f-11eb-bcbc-0242ac130002','MTL',470,'Maltese Lira','I','Ccy');\r\ninsert into currencySchema.Currency(finosId,isoCode,numericCode,description,status,type) values ('a04c7094-a76f-11eb-bcbc-0242ac130002','MTP',470,'Maltese Pound','I','Ccy');\r\ninsert into currencySchema.Currency(finosId,isoCode,numericCode,description,status,type) values ('a04c7166-a76f-11eb-bcbc-0242ac130002','FRF',250,'French Franc','I','Ccy');\r\ninsert into currencySchema.Currency(finosId,isoCode,numericCode,description,status,type) values ('a04c7224-a76f-11eb-bcbc-0242ac130002','MRO',478,'Ouguiya','I','Ccy');\r\ninsert into currencySchema.Currency(finosId,isoCode,numericCode,description,status,type) values ('a04c751c-a76f-11eb-bcbc-0242ac130002','FRF',250,'French Franc','I','Ccy');\r\ninsert into currencySchema.Currency(finosId,isoCode,numericCode,description,status,type) values ('a04c75e4-a76f-11eb-bcbc-0242ac130002','MXP',484,'Mexican Peso','I','Ccy');\r\ninsert into currencySchema.Currency(finosId,isoCode,numericCode,description,status,type) values ('a04c76a2-a76f-11eb-bcbc-0242ac130002','RUR',810,'Russian Ruble','I','Ccy');\r\ninsert into currencySchema.Currency(finosId,isoCode,numericCode,description,status,type) values ('a04c776a-a76f-11eb-bcbc-0242ac130002','FRF',250,'French Franc','I','Ccy');\r\ninsert into currencySchema.Currency(finosId,isoCode,numericCode,description,status,type) values ('a04c7832-a76f-11eb-bcbc-0242ac130002','MZE',508,'Mozambique Escudo','I','Ccy');\r\ninsert into currencySchema.Currency(finosId,isoCode,numericCode,description,status,type) values ('a04c78f0-a76f-11eb-bcbc-0242ac130002','MZM',508,'Mozambique Metical','I','Ccy');\r\ninsert into currencySchema.Currency(finosId,isoCode,numericCode,description,status,type) values ('a04c79ae-a76f-11eb-bcbc-0242ac130002','NLG',528,'Netherlands Guilder','I','Ccy');\r\ninsert into currencySchema.Currency(finosId,isoCode,numericCode,description,status,type) values ('a04c7a6c-a76f-11eb-bcbc-0242ac130002','ANG',532,'Netherlands Antillean Guilder','I','Ccy');\r\ninsert into currencySchema.Currency(finosId,isoCode,numericCode,description,status,type) values ('a04c7d3c-a76f-11eb-bcbc-0242ac130002','NIC',558,'Cordoba','I','Ccy');\r\ninsert into currencySchema.Currency(finosId,isoCode,numericCode,description,status,type) values ('a04c7dfa-a76f-11eb-bcbc-0242ac130002','PEH',604,'Sol','I','Ccy');\r\ninsert into currencySchema.Currency(finosId,isoCode,numericCode,description,status,type) values ('a04c7eb8-a76f-11eb-bcbc-0242ac130002','PEI',604,'Inti','I','Ccy');\r\ninsert into currencySchema.Currency(finosId,isoCode,numericCode,description,status,type) values ('a04c7f76-a76f-11eb-bcbc-0242ac130002','PEN',604,'Nuevo Sol ','I','Ccy');\r\ninsert into currencySchema.Currency(finosId,isoCode,numericCode,description,status,type) values ('a04c803e-a76f-11eb-bcbc-0242ac130002','PES',604,'Sol','I','Ccy');\r\ninsert into currencySchema.Currency(finosId,isoCode,numericCode,description,status,type) values ('a04c80f2-a76f-11eb-bcbc-0242ac130002','PLZ',616,'Zloty','I','Ccy');\r\ninsert into currencySchema.Currency(finosId,isoCode,numericCode,description,status,type) values ('a04c81b0-a76f-11eb-bcbc-0242ac130002','PTE',620,'Portuguese Escudo','I','Ccy');\r\ninsert into currencySchema.Currency(finosId,isoCode,numericCode,description,status,type) values ('a04c8444-a76f-11eb-bcbc-0242ac130002','FRF',250,'French Franc','I','Ccy');\r\ninsert into currencySchema.Currency(finosId,isoCode,numericCode,description,status,type) values ('a04c8516-a76f-11eb-bcbc-0242ac130002','ROK',642,'Leu A/52','I','Ccy');\r\ninsert into currencySchema.Currency(finosId,isoCode,numericCode,description,status,type) values ('a04c85d4-a76f-11eb-bcbc-0242ac130002','ROL',642,'Old Leu','I','Ccy');\r\ninsert into currencySchema.Currency(finosId,isoCode,numericCode,description,status,type) values ('a04c8688-a76f-11eb-bcbc-0242ac130002','RON',946,'New Romanian Leu ','I','Ccy');\r\ninsert into currencySchema.Currency(finosId,isoCode,numericCode,description,status,type) values ('a04c8746-a76f-11eb-bcbc-0242ac130002','RUR',810,'Russian Ruble','I','Ccy');\r\ninsert into currencySchema.Currency(finosId,isoCode,numericCode,description,status,type) values ('a04c87fa-a76f-11eb-bcbc-0242ac130002','FRF',250,'French Franc','I','Ccy');\r\ninsert into currencySchema.Currency(finosId,isoCode,numericCode,description,status,type) values ('a04c88b8-a76f-11eb-bcbc-0242ac130002','FRF',250,'French Franc','I','Ccy');\r\ninsert into currencySchema.Currency(finosId,isoCode,numericCode,description,status,type) values ('a04c8976-a76f-11eb-bcbc-0242ac130002','FRF',250,'French Franc','I','Ccy');\r\ninsert into currencySchema.Currency(finosId,isoCode,numericCode,description,status,type) values ('a04c8f0c-a76f-11eb-bcbc-0242ac130002','ITL',380,'Italian Lira','I','Ccy');\r\ninsert into currencySchema.Currency(finosId,isoCode,numericCode,description,status,type) values ('a04c9010-a76f-11eb-bcbc-0242ac130002','STD',678,'Dobra','I','Ccy');\r\ninsert into currencySchema.Currency(finosId,isoCode,numericCode,description,status,type) values ('a04c90d8-a76f-11eb-bcbc-0242ac130002','CSD',891,'Serbian Dinar','I','Ccy');\r\ninsert into currencySchema.Currency(finosId,isoCode,numericCode,description,status,type) values ('a04c9254-a76f-11eb-bcbc-0242ac130002','SKK',703,'Slovak Koruna','I','Ccy');\r\ninsert into currencySchema.Currency(finosId,isoCode,numericCode,description,status,type) values ('a04c9312-a76f-11eb-bcbc-0242ac130002','SIT',705,'Tolar','I','Ccy');\r\ninsert into currencySchema.Currency(finosId,isoCode,numericCode,description,status,type) values ('a04c93d0-a76f-11eb-bcbc-0242ac130002','ZAL',991,'Financial Rand','I','Ccy');\r\ninsert into currencySchema.Currency(finosId,isoCode,numericCode,description,status,type) values ('a04c9484-a76f-11eb-bcbc-0242ac130002','SDG',938,'Sudanese Pound','I','Ccy');\r\ninsert into currencySchema.Currency(finosId,isoCode,numericCode,description,status,type) values ('a04c9740-a76f-11eb-bcbc-0242ac130002','RHD',716,'Rhodesian Dollar','I','Ccy');\r\ninsert into currencySchema.Currency(finosId,isoCode,numericCode,description,status,type) values ('a04c9808-a76f-11eb-bcbc-0242ac130002','ESA',996,'Spanish Peseta','I','Ccy');\r\ninsert into currencySchema.Currency(finosId,isoCode,numericCode,description,status,type) values ('a04c98c6-a76f-11eb-bcbc-0242ac130002','ESP',724,'Spanish Peseta','I','Ccy');\r\ninsert into currencySchema.Currency(finosId,isoCode,numericCode,description,status,type) values ('a04c9984-a76f-11eb-bcbc-0242ac130002','SDD',736,'Sudanese Dinar','I','Ccy');\r\ninsert into currencySchema.Currency(finosId,isoCode,numericCode,description,status,type) values ('a04c9a42-a76f-11eb-bcbc-0242ac130002','SDP',736,'Sudanese Pound','I','Ccy');\r\ninsert into currencySchema.Currency(finosId,isoCode,numericCode,description,status,type) values ('a04c9b00-a76f-11eb-bcbc-0242ac130002','SRG',740,'Surinam Guilder','I','Ccy');\r\ninsert into currencySchema.Currency(finosId,isoCode,numericCode,description,status,type) values ('a04c9bbe-a76f-11eb-bcbc-0242ac130002','SZL',748,'Lilangeni','I','Ccy');\r\ninsert into currencySchema.Currency(finosId,isoCode,numericCode,description,status,type) values ('a04c9e66-a76f-11eb-bcbc-0242ac130002','RUR',810,'Russian Ruble','I','Ccy');\r\ninsert into currencySchema.Currency(finosId,isoCode,numericCode,description,status,type) values ('a04c9f2e-a76f-11eb-bcbc-0242ac130002','TJR',762,'Tajik Ruble','I','Ccy');\r\ninsert into currencySchema.Currency(finosId,isoCode,numericCode,description,status,type) values ('a04c9fe2-a76f-11eb-bcbc-0242ac130002','IDR',360,'Rupiah','I','Ccy');\r\ninsert into currencySchema.Currency(finosId,isoCode,numericCode,description,status,type) values ('a04ca0a0-a76f-11eb-bcbc-0242ac130002','TPE',626,'Timor Escudo','I','Ccy');\r\ninsert into currencySchema.Currency(finosId,isoCode,numericCode,description,status,type) values ('a04ca154-a76f-11eb-bcbc-0242ac130002','TRL',792,'Old Turkish Lira','I','Ccy');\r\ninsert into currencySchema.Currency(finosId,isoCode,numericCode,description,status,type) values ('a04ca212-a76f-11eb-bcbc-0242ac130002','TRY',949,'New Turkish Lira','I','Ccy');\r\ninsert into currencySchema.Currency(finosId,isoCode,numericCode,description,status,type) values ('a04ca2d0-a76f-11eb-bcbc-0242ac130002','RUR',810,'Russian Ruble','I','Ccy');\r\ninsert into currencySchema.Currency(finosId,isoCode,numericCode,description,status,type) values ('a04ca38e-a76f-11eb-bcbc-0242ac130002','TMM',795,'Turkmenistan Manat','I','Ccy');\r\ninsert into currencySchema.Currency(finosId,isoCode,numericCode,description,status,type) values ('a04ca690-a76f-11eb-bcbc-0242ac130002','UGS',800,'Uganda Shilling','I','Ccy');\r\ninsert into currencySchema.Currency(finosId,isoCode,numericCode,description,status,type) values ('a04ca762-a76f-11eb-bcbc-0242ac130002','UGW',800,'Old Shilling','I','Ccy');\r\ninsert into currencySchema.Currency(finosId,isoCode,numericCode,description,status,type) values ('a04ca816-a76f-11eb-bcbc-0242ac130002','UAK',804,'Karbovanet','I','Ccy');\r\ninsert into currencySchema.Currency(finosId,isoCode,numericCode,description,status,type) values ('a04ca8ca-a76f-11eb-bcbc-0242ac130002','SUR',810,'Rouble','I','Ccy');\r\ninsert into currencySchema.Currency(finosId,isoCode,numericCode,description,status,type) values ('a04ca97e-a76f-11eb-bcbc-0242ac130002','USS',998,'US Dollar (Same day)','I','Ccy');\r\ninsert into currencySchema.Currency(finosId,isoCode,numericCode,description,status,type) values ('a04caa32-a76f-11eb-bcbc-0242ac130002','UYN',858,'Old Uruguay Peso','I','Ccy');\r\ninsert into currencySchema.Currency(finosId,isoCode,numericCode,description,status,type) values ('a04caadc-a76f-11eb-bcbc-0242ac130002','UYP',858,'Uruguayan Peso','I','Ccy');\r\ninsert into currencySchema.Currency(finosId,isoCode,numericCode,description,status,type) values ('a04cab90-a76f-11eb-bcbc-0242ac130002','RUR',810,'Russian Ruble','I','Ccy');\r\ninsert into currencySchema.Currency(finosId,isoCode,numericCode,description,status,type) values ('a04cae7e-a76f-11eb-bcbc-0242ac130002','VEB',862,'Bolivar','I','Ccy');\r\ninsert into currencySchema.Currency(finosId,isoCode,numericCode,description,status,type) values ('a04caf3c-a76f-11eb-bcbc-0242ac130002','VEF',937,'Bolivar Fuerte','I','Ccy');\r\ninsert into currencySchema.Currency(finosId,isoCode,numericCode,description,status,type) values ('a04caff0-a76f-11eb-bcbc-0242ac130002','VEF',937,'Bolivar','I','Ccy');\r\ninsert into currencySchema.Currency(finosId,isoCode,numericCode,description,status,type) values ('a04cb0ae-a76f-11eb-bcbc-0242ac130002','VEF',937,'Bolívar','I','Ccy');\r\ninsert into currencySchema.Currency(finosId,isoCode,numericCode,description,status,type) values ('a04cb162-a76f-11eb-bcbc-0242ac130002','VNC',704,'Old Dong','I','Ccy');\r\ninsert into currencySchema.Currency(finosId,isoCode,numericCode,description,status,type) values ('a04cb220-a76f-11eb-bcbc-0242ac130002','YDD',720,'Yemeni Dinar','I','Ccy');\r\ninsert into currencySchema.Currency(finosId,isoCode,numericCode,description,status,type) values ('a04cb2de-a76f-11eb-bcbc-0242ac130002','YUD',890,'New Yugoslavian Dinar','I','Ccy');\r\ninsert into currencySchema.Currency(finosId,isoCode,numericCode,description,status,type) values ('a04cb540-a76f-11eb-bcbc-0242ac130002','YUM',891,'New Dinar','I','Ccy');\r\ninsert into currencySchema.Currency(finosId,isoCode,numericCode,description,status,type) values ('a04cb608-a76f-11eb-bcbc-0242ac130002','YUN',890,'Yugoslavian Dinar','I','Ccy');\r\ninsert into currencySchema.Currency(finosId,isoCode,numericCode,description,status,type) values ('a04cb6bc-a76f-11eb-bcbc-0242ac130002','ZRN',180,'New Zaire','I','Ccy');\r\ninsert into currencySchema.Currency(finosId,isoCode,numericCode,description,status,type) values ('a04cb766-a76f-11eb-bcbc-0242ac130002','ZRZ',180,'Zaire','I','Ccy');\r\ninsert into currencySchema.Currency(finosId,isoCode,numericCode,description,status,type) values ('a04cb81a-a76f-11eb-bcbc-0242ac130002','ZMK',894,'Zambian Kwacha','I','Ccy');\r\ninsert into currencySchema.Currency(finosId,isoCode,numericCode,description,status,type) values ('a04cb8d8-a76f-11eb-bcbc-0242ac130002','ZWC',716,'Rhodesian Dollar','I','Ccy');\r\ninsert into currencySchema.Currency(finosId,isoCode,numericCode,description,status,type) values ('a04cb996-a76f-11eb-bcbc-0242ac130002','ZWD',716,'Zimbabwe Dollar','I','Ccy');\r\ninsert into currencySchema.Currency(finosId,isoCode,numericCode,description,status,type) values ('a04cbc0c-a76f-11eb-bcbc-0242ac130002','ZWN',942,'Zimbabwe Dollar (new)','I','Ccy');\r\ninsert into currencySchema.Currency(finosId,isoCode,numericCode,description,status,type) values ('a04cbcca-a76f-11eb-bcbc-0242ac130002','ZWR',935,'Zimbabwe Dollar','I','Ccy');\r\ninsert into currencySchema.IssuingAuthority(issuingAuthorityType,name,identifier) values ('C','Andorra',1);\r\ninsert into currencySchema.IssuingAuthority(issuingAuthorityType,name,identifier) values ('C','United Arab Emirates (The)',2);\r\ninsert into currencySchema.IssuingAuthority(issuingAuthorityType,name,identifier) values ('C','Afghanistan',3);\r\ninsert into currencySchema.IssuingAuthority(issuingAuthorityType,name,identifier) values ('C','Albania',4);\r\ninsert into currencySchema.IssuingAuthority(issuingAuthorityType,name,identifier) values ('C','Armenia',5);\r\ninsert into currencySchema.IssuingAuthority(issuingAuthorityType,name,identifier) values ('C','Angola',6);\r\ninsert into currencySchema.IssuingAuthority(issuingAuthorityType,name,identifier) values ('C','Argentina',7);\r\ninsert into currencySchema.IssuingAuthority(issuingAuthorityType,name,identifier) values ('C','Austria',8);\r\ninsert into currencySchema.IssuingAuthority(issuingAuthorityType,name,identifier) values ('C','Australia',9);\r\ninsert into currencySchema.IssuingAuthority(issuingAuthorityType,name,identifier) values ('C','Aruba',10);\r\ninsert into currencySchema.IssuingAuthority(issuingAuthorityType,name,identifier) values ('C','Åland Islands',11);\r\ninsert into currencySchema.IssuingAuthority(issuingAuthorityType,name,identifier) values ('C','Azerbaijan',12);\r\ninsert into currencySchema.IssuingAuthority(issuingAuthorityType,name,identifier) values ('C','Bosnia And Herzegovina',13);\r\ninsert into currencySchema.IssuingAuthority(issuingAuthorityType,name,identifier) values ('C','Barbados',14);\r\ninsert into currencySchema.IssuingAuthority(issuingAuthorityType,name,identifier) values ('C','Bangladesh',15);\r\ninsert into currencySchema.IssuingAuthority(issuingAuthorityType,name,identifier) values ('C','Belgium',16);\r\ninsert into currencySchema.IssuingAuthority(issuingAuthorityType,name,identifier) values ('C','Bulgaria',17);\r\ninsert into currencySchema.IssuingAuthority(issuingAuthorityType,name,identifier) values ('C','Bahrain',18);\r\ninsert into currencySchema.IssuingAuthority(issuingAuthorityType,name,identifier) values ('C','Burundi',19);\r\ninsert into currencySchema.IssuingAuthority(issuingAuthorityType,name,identifier) values ('C','Bermuda',20);\r\ninsert into currencySchema.IssuingAuthority(issuingAuthorityType,name,identifier) values ('C','Brunei Darussalam',21);\r\ninsert into currencySchema.IssuingAuthority(issuingAuthorityType,name,identifier) values ('C','Bolivia (Plurinational State Of)',22);\r\ninsert into currencySchema.IssuingAuthority(issuingAuthorityType,name,identifier) values ('C','Brazil',23);\r\ninsert into currencySchema.IssuingAuthority(issuingAuthorityType,name,identifier) values ('C','Bahamas (The)',24);\r\ninsert into currencySchema.IssuingAuthority(issuingAuthorityType,name,identifier) values ('C','Bhutan',25);\r\ninsert into currencySchema.IssuingAuthority(issuingAuthorityType,name,identifier) values ('C','Botswana',26);\r\ninsert into currencySchema.IssuingAuthority(issuingAuthorityType,name,identifier) values ('C','Belarus',27);\r\ninsert into currencySchema.IssuingAuthority(issuingAuthorityType,name,identifier) values ('C','Belize',28);\r\ninsert into currencySchema.IssuingAuthority(issuingAuthorityType,name,identifier) values ('C','Canada',29);\r\ninsert into currencySchema.IssuingAuthority(issuingAuthorityType,name,identifier) values ('C','Congo (The Democratic Republic Of The)',30);\r\ninsert into currencySchema.IssuingAuthority(issuingAuthorityType,name,identifier) values ('C','Switzerland',31);\r\ninsert into currencySchema.IssuingAuthority(issuingAuthorityType,name,identifier) values ('C','Chile',32);\r\ninsert into currencySchema.IssuingAuthority(issuingAuthorityType,name,identifier) values ('C','China',33);\r\ninsert into currencySchema.IssuingAuthority(issuingAuthorityType,name,identifier) values ('C','Colombia',34);\r\ninsert into currencySchema.IssuingAuthority(issuingAuthorityType,name,identifier) values ('C','Costa Rica',35);\r\ninsert into currencySchema.IssuingAuthority(issuingAuthorityType,name,identifier) values ('C','Cuba',36);\r\ninsert into currencySchema.IssuingAuthority(issuingAuthorityType,name,identifier) values ('C','Cabo Verde',37);\r\ninsert into currencySchema.IssuingAuthority(issuingAuthorityType,name,identifier) values ('C','Cyprus',38);\r\ninsert into currencySchema.IssuingAuthority(issuingAuthorityType,name,identifier) values ('C','Czechia',39);\r\ninsert into currencySchema.IssuingAuthority(issuingAuthorityType,name,identifier) values ('C','Germany',40);\r\ninsert into currencySchema.IssuingAuthority(issuingAuthorityType,name,identifier) values ('C','Djibouti',41);\r\ninsert into currencySchema.IssuingAuthority(issuingAuthorityType,name,identifier) values ('C','Denmark',42);\r\ninsert into currencySchema.IssuingAuthority(issuingAuthorityType,name,identifier) values ('C','Dominican Republic (The)',43);\r\ninsert into currencySchema.IssuingAuthority(issuingAuthorityType,name,identifier) values ('C','Algeria',44);\r\ninsert into currencySchema.IssuingAuthority(issuingAuthorityType,name,identifier) values ('C','Ecuador',45);\r\ninsert into currencySchema.IssuingAuthority(issuingAuthorityType,name,identifier) values ('C','Estonia',46);\r\ninsert into currencySchema.IssuingAuthority(issuingAuthorityType,name,identifier) values ('C','Egypt',47);\r\ninsert into currencySchema.IssuingAuthority(issuingAuthorityType,name,identifier) values ('C','Eritrea',48);\r\ninsert into currencySchema.IssuingAuthority(issuingAuthorityType,name,identifier) values ('C','Spain',49);\r\ninsert into currencySchema.IssuingAuthority(issuingAuthorityType,name,identifier) values ('C','Ethiopia',50);\r\ninsert into currencySchema.IssuingAuthority(issuingAuthorityType,name,identifier) values ('C','Finland',51);\r\ninsert into currencySchema.IssuingAuthority(issuingAuthorityType,name,identifier) values ('C','Fiji',52);\r\ninsert into currencySchema.IssuingAuthority(issuingAuthorityType,name,identifier) values ('C','Falkland Islands (The) [Malvinas]',53);\r\ninsert into currencySchema.IssuingAuthority(issuingAuthorityType,name,identifier) values ('C','France',54);\r\ninsert into currencySchema.IssuingAuthority(issuingAuthorityType,name,identifier) values ('C','United Kingdom Of Great Britain And Northern Ireland (The)',55);\r\ninsert into currencySchema.IssuingAuthority(issuingAuthorityType,name,identifier) values ('C','Georgia',56);\r\ninsert into currencySchema.IssuingAuthority(issuingAuthorityType,name,identifier) values ('C','French Guiana',57);\r\ninsert into currencySchema.IssuingAuthority(issuingAuthorityType,name,identifier) values ('C','Ghana',58);\r\ninsert into currencySchema.IssuingAuthority(issuingAuthorityType,name,identifier) values ('C','Gibraltar',59);\r\ninsert into currencySchema.IssuingAuthority(issuingAuthorityType,name,identifier) values ('C','Gambia (The)',60);\r\ninsert into currencySchema.IssuingAuthority(issuingAuthorityType,name,identifier) values ('C','Guinea',61);\r\ninsert into currencySchema.IssuingAuthority(issuingAuthorityType,name,identifier) values ('C','Guadeloupe',62);\r\ninsert into currencySchema.IssuingAuthority(issuingAuthorityType,name,identifier) values ('C','Equatorial Guinea',63);\r\ninsert into currencySchema.IssuingAuthority(issuingAuthorityType,name,identifier) values ('C','Greece',64);\r\ninsert into currencySchema.IssuingAuthority(issuingAuthorityType,name,identifier) values ('C','Guatemala',65);\r\ninsert into currencySchema.IssuingAuthority(issuingAuthorityType,name,identifier) values ('C','Guinea-Bissau',66);\r\ninsert into currencySchema.IssuingAuthority(issuingAuthorityType,name,identifier) values ('C','Guyana',67);\r\ninsert into currencySchema.IssuingAuthority(issuingAuthorityType,name,identifier) values ('C','Hong Kong',68);\r\ninsert into currencySchema.IssuingAuthority(issuingAuthorityType,name,identifier) values ('C','Honduras',69);\r\ninsert into currencySchema.IssuingAuthority(issuingAuthorityType,name,identifier) values ('C','Croatia',70);\r\ninsert into currencySchema.IssuingAuthority(issuingAuthorityType,name,identifier) values ('C','Haiti',71);\r\ninsert into currencySchema.IssuingAuthority(issuingAuthorityType,name,identifier) values ('C','Hungary',72);\r\ninsert into currencySchema.IssuingAuthority(issuingAuthorityType,name,identifier) values ('C','Indonesia',73);\r\ninsert into currencySchema.IssuingAuthority(issuingAuthorityType,name,identifier) values ('C','Ireland',74);\r\ninsert into currencySchema.IssuingAuthority(issuingAuthorityType,name,identifier) values ('C','Israel',75);\r\ninsert into currencySchema.IssuingAuthority(issuingAuthorityType,name,identifier) values ('C','India',76);\r\ninsert into currencySchema.IssuingAuthority(issuingAuthorityType,name,identifier) values ('C','Iraq',77);\r\ninsert into currencySchema.IssuingAuthority(issuingAuthorityType,name,identifier) values ('C','Iran (Islamic Republic Of)',78);\r\ninsert into currencySchema.IssuingAuthority(issuingAuthorityType,name,identifier) values ('C','Iceland',79);\r\ninsert into currencySchema.IssuingAuthority(issuingAuthorityType,name,identifier) values ('C','Italy',80);\r\ninsert into currencySchema.IssuingAuthority(issuingAuthorityType,name,identifier) values ('C','Jamaica',81);\r\ninsert into currencySchema.IssuingAuthority(issuingAuthorityType,name,identifier) values ('C','Jordan',82);\r\ninsert into currencySchema.IssuingAuthority(issuingAuthorityType,name,identifier) values ('C','Japan',83);\r\ninsert into currencySchema.IssuingAuthority(issuingAuthorityType,name,identifier) values ('C','Kenya',84);\r\ninsert into currencySchema.IssuingAuthority(issuingAuthorityType,name,identifier) values ('C','Kyrgyzstan',85);\r\ninsert into currencySchema.IssuingAuthority(issuingAuthorityType,name,identifier) values ('C','Cambodia',86);\r\ninsert into currencySchema.IssuingAuthority(issuingAuthorityType,name,identifier) values ('C','Comoros (The)',87);\r\ninsert into currencySchema.IssuingAuthority(issuingAuthorityType,name,identifier) values ('C','Korea (The Democratic People’s Republic Of)',88);\r\ninsert into currencySchema.IssuingAuthority(issuingAuthorityType,name,identifier) values ('C','Korea (The Republic Of)',89);\r\ninsert into currencySchema.IssuingAuthority(issuingAuthorityType,name,identifier) values ('C','Kuwait',90);\r\ninsert into currencySchema.IssuingAuthority(issuingAuthorityType,name,identifier) values ('C','Cayman Islands (The)',91);\r\ninsert into currencySchema.IssuingAuthority(issuingAuthorityType,name,identifier) values ('C','Kazakhstan',92);\r\ninsert into currencySchema.IssuingAuthority(issuingAuthorityType,name,identifier) values ('C','Lao People’s Democratic Republic (The)',93);\r\ninsert into currencySchema.IssuingAuthority(issuingAuthorityType,name,identifier) values ('C','Lebanon',94);\r\ninsert into currencySchema.IssuingAuthority(issuingAuthorityType,name,identifier) values ('C','Sri Lanka',95);\r\ninsert into currencySchema.IssuingAuthority(issuingAuthorityType,name,identifier) values ('C','Liberia',96);\r\ninsert into currencySchema.IssuingAuthority(issuingAuthorityType,name,identifier) values ('C','Lesotho',97);\r\ninsert into currencySchema.IssuingAuthority(issuingAuthorityType,name,identifier) values ('C','Lithuania',98);\r\ninsert into currencySchema.IssuingAuthority(issuingAuthorityType,name,identifier) values ('C','Luxembourg',99);\r\ninsert into currencySchema.IssuingAuthority(issuingAuthorityType,name,identifier) values ('C','Latvia',100);\r\ninsert into currencySchema.IssuingAuthority(issuingAuthorityType,name,identifier) values ('C','Libya',101);\r\ninsert into currencySchema.IssuingAuthority(issuingAuthorityType,name,identifier) values ('C','Morocco',102);\r\ninsert into currencySchema.IssuingAuthority(issuingAuthorityType,name,identifier) values ('C','Monaco',103);\r\ninsert into currencySchema.IssuingAuthority(issuingAuthorityType,name,identifier) values ('C','Moldova (The Republic Of)',104);\r\ninsert into currencySchema.IssuingAuthority(issuingAuthorityType,name,identifier) values ('C','Saint Martin (French Part)',105);\r\ninsert into currencySchema.IssuingAuthority(issuingAuthorityType,name,identifier) values ('C','Madagascar',106);\r\ninsert into currencySchema.IssuingAuthority(issuingAuthorityType,name,identifier) values ('C','North Macedonia',107);\r\ninsert into currencySchema.IssuingAuthority(issuingAuthorityType,name,identifier) values ('C','Mali',108);\r\ninsert into currencySchema.IssuingAuthority(issuingAuthorityType,name,identifier) values ('C','Myanmar',109);\r\ninsert into currencySchema.IssuingAuthority(issuingAuthorityType,name,identifier) values ('C','Mongolia',110);\r\ninsert into currencySchema.IssuingAuthority(issuingAuthorityType,name,identifier) values ('C','Macao',111);\r\ninsert into currencySchema.IssuingAuthority(issuingAuthorityType,name,identifier) values ('C','Martinique',112);\r\ninsert into currencySchema.IssuingAuthority(issuingAuthorityType,name,identifier) values ('C','Mauritania',113);\r\ninsert into currencySchema.IssuingAuthority(issuingAuthorityType,name,identifier) values ('C','Malta',114);\r\ninsert into currencySchema.IssuingAuthority(issuingAuthorityType,name,identifier) values ('C','Mauritius',115);\r\ninsert into currencySchema.IssuingAuthority(issuingAuthorityType,name,identifier) values ('C','Maldives',116);\r\ninsert into currencySchema.IssuingAuthority(issuingAuthorityType,name,identifier) values ('C','Malawi',117);\r\ninsert into currencySchema.IssuingAuthority(issuingAuthorityType,name,identifier) values ('C','Mexico',118);\r\ninsert into currencySchema.IssuingAuthority(issuingAuthorityType,name,identifier) values ('C','Malaysia',119);\r\ninsert into currencySchema.IssuingAuthority(issuingAuthorityType,name,identifier) values ('C','Mozambique',120);\r\ninsert into currencySchema.IssuingAuthority(issuingAuthorityType,name,identifier) values ('C','Namibia',121);\r\ninsert into currencySchema.IssuingAuthority(issuingAuthorityType,name,identifier) values ('C','Nigeria',122);\r\ninsert into currencySchema.IssuingAuthority(issuingAuthorityType,name,identifier) values ('C','Nicaragua',123);\r\ninsert into currencySchema.IssuingAuthority(issuingAuthorityType,name,identifier) values ('C','Netherlands (The)',124);\r\ninsert into currencySchema.IssuingAuthority(issuingAuthorityType,name,identifier) values ('C','Norway',125);\r\ninsert into currencySchema.IssuingAuthority(issuingAuthorityType,name,identifier) values ('C','Nepal',126);\r\ninsert into currencySchema.IssuingAuthority(issuingAuthorityType,name,identifier) values ('C','New Zealand',127);\r\ninsert into currencySchema.IssuingAuthority(issuingAuthorityType,name,identifier) values ('C','Oman',128);\r\ninsert into currencySchema.IssuingAuthority(issuingAuthorityType,name,identifier) values ('C','Panama',129);\r\ninsert into currencySchema.IssuingAuthority(issuingAuthorityType,name,identifier) values ('C','Peru',130);\r\ninsert into currencySchema.IssuingAuthority(issuingAuthorityType,name,identifier) values ('C','Papua New Guinea',131);\r\ninsert into currencySchema.IssuingAuthority(issuingAuthorityType,name,identifier) values ('C','Philippines (The)',132);\r\ninsert into currencySchema.IssuingAuthority(issuingAuthorityType,name,identifier) values ('C','Pakistan',133);\r\ninsert into currencySchema.IssuingAuthority(issuingAuthorityType,name,identifier) values ('C','Poland',134);\r\ninsert into currencySchema.IssuingAuthority(issuingAuthorityType,name,identifier) values ('C','Saint Pierre And Miquelon',135);\r\ninsert into currencySchema.IssuingAuthority(issuingAuthorityType,name,identifier) values ('C','Portugal',136);\r\ninsert into currencySchema.IssuingAuthority(issuingAuthorityType,name,identifier) values ('C','Paraguay',137);\r\ninsert into currencySchema.IssuingAuthority(issuingAuthorityType,name,identifier) values ('C','Qatar',138);\r\ninsert into currencySchema.IssuingAuthority(issuingAuthorityType,name,identifier) values ('C','Réunion',139);\r\ninsert into currencySchema.IssuingAuthority(issuingAuthorityType,name,identifier) values ('C','Romania',140);\r\ninsert into currencySchema.IssuingAuthority(issuingAuthorityType,name,identifier) values ('C','Serbia',141);\r\ninsert into currencySchema.IssuingAuthority(issuingAuthorityType,name,identifier) values ('C','Russian Federation (The)',142);\r\ninsert into currencySchema.IssuingAuthority(issuingAuthorityType,name,identifier) values ('C','Rwanda',143);\r\ninsert into currencySchema.IssuingAuthority(issuingAuthorityType,name,identifier) values ('C','Saudi Arabia',144);\r\ninsert into currencySchema.IssuingAuthority(issuingAuthorityType,name,identifier) values ('C','Solomon Islands',145);\r\ninsert into currencySchema.IssuingAuthority(issuingAuthorityType,name,identifier) values ('C','Seychelles',146);\r\ninsert into currencySchema.IssuingAuthority(issuingAuthorityType,name,identifier) values ('C','Sudan (The)',147);\r\ninsert into currencySchema.IssuingAuthority(issuingAuthorityType,name,identifier) values ('C','Sweden',148);\r\ninsert into currencySchema.IssuingAuthority(issuingAuthorityType,name,identifier) values ('C','Singapore',149);\r\ninsert into currencySchema.IssuingAuthority(issuingAuthorityType,name,identifier) values ('C','Saint Helena, Ascension And Tristan Da Cunha',150);\r\ninsert into currencySchema.IssuingAuthority(issuingAuthorityType,name,identifier) values ('C','Slovenia',151);\r\ninsert into currencySchema.IssuingAuthority(issuingAuthorityType,name,identifier) values ('C','Slovakia',152);\r\ninsert into currencySchema.IssuingAuthority(issuingAuthorityType,name,identifier) values ('C','Sierra Leone',153);\r\ninsert into currencySchema.IssuingAuthority(issuingAuthorityType,name,identifier) values ('C','San Marino',154);\r\ninsert into currencySchema.IssuingAuthority(issuingAuthorityType,name,identifier) values ('C','Somalia',155);\r\ninsert into currencySchema.IssuingAuthority(issuingAuthorityType,name,identifier) values ('C','Suriname',156);\r\ninsert into currencySchema.IssuingAuthority(issuingAuthorityType,name,identifier) values ('C','South Sudan',157);\r\ninsert into currencySchema.IssuingAuthority(issuingAuthorityType,name,identifier) values ('C','Sao Tome And Principe',158);\r\ninsert into currencySchema.IssuingAuthority(issuingAuthorityType,name,identifier) values ('C','El Salvador',159);\r\ninsert into currencySchema.IssuingAuthority(issuingAuthorityType,name,identifier) values ('C','Syrian Arab Republic',160);\r\ninsert into currencySchema.IssuingAuthority(issuingAuthorityType,name,identifier) values ('C','Eswatini',161);\r\ninsert into currencySchema.IssuingAuthority(issuingAuthorityType,name,identifier) values ('C','French Southern Territories (The)',162);\r\ninsert into currencySchema.IssuingAuthority(issuingAuthorityType,name,identifier) values ('C','Thailand',163);\r\ninsert into currencySchema.IssuingAuthority(issuingAuthorityType,name,identifier) values ('C','Tajikistan',164);\r\ninsert into currencySchema.IssuingAuthority(issuingAuthorityType,name,identifier) values ('C','Timor-Leste',165);\r\ninsert into currencySchema.IssuingAuthority(issuingAuthorityType,name,identifier) values ('C','Turkmenistan',166);\r\ninsert into currencySchema.IssuingAuthority(issuingAuthorityType,name,identifier) values ('C','Tunisia',167);\r\ninsert into currencySchema.IssuingAuthority(issuingAuthorityType,name,identifier) values ('C','Tonga',168);\r\ninsert into currencySchema.IssuingAuthority(issuingAuthorityType,name,identifier) values ('C','Turkey',169);\r\ninsert into currencySchema.IssuingAuthority(issuingAuthorityType,name,identifier) values ('C','Trinidad And Tobago',170);\r\ninsert into currencySchema.IssuingAuthority(issuingAuthorityType,name,identifier) values ('C','Taiwan (Province Of China)',171);\r\ninsert into currencySchema.IssuingAuthority(issuingAuthorityType,name,identifier) values ('C','Tanzania, United Republic Of',172);\r\ninsert into currencySchema.IssuingAuthority(issuingAuthorityType,name,identifier) values ('C','Ukraine',173);\r\ninsert into currencySchema.IssuingAuthority(issuingAuthorityType,name,identifier) values ('C','Uganda',174);\r\ninsert into currencySchema.IssuingAuthority(issuingAuthorityType,name,identifier) values ('C','United States Of America (The)',175);\r\ninsert into currencySchema.IssuingAuthority(issuingAuthorityType,name,identifier) values ('C','Uruguay',176);\r\ninsert into currencySchema.IssuingAuthority(issuingAuthorityType,name,identifier) values ('C','Uzbekistan',177);\r\ninsert into currencySchema.IssuingAuthority(issuingAuthorityType,name,identifier) values ('C','Holy See (The)',178);\r\ninsert into currencySchema.IssuingAuthority(issuingAuthorityType,name,identifier) values ('C','Venezuela (Bolivarian Republic Of)',179);\r\ninsert into currencySchema.IssuingAuthority(issuingAuthorityType,name,identifier) values ('C','Viet Nam',180);\r\ninsert into currencySchema.IssuingAuthority(issuingAuthorityType,name,identifier) values ('C','Vanuatu',181);\r\ninsert into currencySchema.IssuingAuthority(issuingAuthorityType,name,identifier) values ('C','Samoa',182);\r\ninsert into currencySchema.IssuingAuthority(issuingAuthorityType,name,identifier) values ('C','Yemen',183);\r\ninsert into currencySchema.IssuingAuthority(issuingAuthorityType,name,identifier) values ('C','Mayotte',184);\r\ninsert into currencySchema.IssuingAuthority(issuingAuthorityType,name,identifier) values ('C','South Africa',185);\r\ninsert into currencySchema.IssuingAuthority(issuingAuthorityType,name,identifier) values ('C','Zambia',186);\r\ninsert into currencySchema.IssuingAuthority(issuingAuthorityType,name,identifier) values ('C','Zimbabwe',187);\r\ninsert into currencySchema.IssuingAuthority(issuingAuthorityType,name,identifier) values ('T','Eastern Caribbean Currency Union (ECCU)',188);\r\ninsert into currencySchema.IssuingAuthority(issuingAuthorityType,name,identifier) values ('T','L’Union Monétaire Ouest Africaine (UMOA)',189);\r\ninsert into currencySchema.IssuingAuthority(issuingAuthorityType,name,identifier) values ('T','Communauté Economique et Monétaire de l’Afrique Centrale (CEMAC)',190);\r\ninsert into currencySchema.IssuingAuthority(issuingAuthorityType,name,identifier) values ('T','European Union',191);\r\ninsert into currencySchema.IssuingAuthority(issuingAuthorityType,name,identifier) values ('T','Southern African Customs Union',192);\r\ninsert into currencySchema.IssuingAuthority(issuingAuthorityType,name,identifier) values ('L','Central Bank  for Curaçao and Sint Maarten',193);\r\ninsert into currencySchema.IssuingAuthority(issuingAuthorityType,name,identifier) values ('L','L’Institut d’émission d’outre-mer (IEOM)',194);\r\n" ]
      },
      "element" : "Model::physicalModel::currencyDatabase",
      "type" : "H2"
    },
    "name" : "H2Sample",
    "package" : "Model::physicalModel"
  }
}