{
  "classifierPath" : "meta::pure::metamodel::type::Enumeration",
  "content" : {
    "_type" : "Enumeration",
    "name" : "IssuingAuthorityType",
    "package" : "Model",
    "taggedValues" : [ {
      "tag" : {
        "profile" : "meta::pure::profiles::doc",
        "value" : "doc"
      },
      "value" : "Denotes the type of authority that issued the currency."
    } ],
    "values" : [ {
      "value" : "Country"
    }, {
      "value" : "LegalEntity"
    }, {
      "value" : "TreatyOrganisation"
    } ]
  }
}